timestamp,mc
0,-6.26e-07
0.00025,-6.26e-07
0.0005,-7.3e-07
0.00075,-3.98e-07
0.001,-2.85e-07
0.00125,-2.99e-07
0.0015,-9.5e-08
0.00175,-1.33e-07
0.002,-1.71e-07
0.00225,-5.7e-08
0.0025,-1.85e-07
0.00275,-9.5e-08
0.003,-3.23e-07
0.00325,-2.47e-07
0.0035,-3.13e-07
0.00375,-4.51e-07
0.004,-2.37e-07
0.00425,6.357225e-05
0.0045,0.0001273815
0.00475,0.00019119075
0.005,0.000255
0.00525,0.05640825
0.0055,0.1125615
0.00575,0.16871475
0.006,0.224868
0.00625,0.17149775
0.0065,0.1181275
0.00675,0.06475725
0.007,0.011387
0.00725,0.00911925
0.0075,0.0068515
0.00775,0.00458375
0.008,0.002316
0.00825,0.0018215
0.0085,0.001327
0.00875,0.0008325
0.009,0.000338
0.00925,0.00042025
0.0095,0.0005025
0.00975,0.00058475
0.01,0.000667
0.01025,0.00312025
0.0105,0.0055735
0.01075,0.00802675
0.011,0.01048
0.01125,0.07908425
0.0115,0.1476885
0.01175,0.21629275
0.012,0.284897
0.01225,0.284897
0.0125,0.284897
0.01275,0.284897
0.013,0.284897
0.01325,0.217447
0.0135,0.149997
0.01375,0.082547
0.014,0.015097
0.01425,0.0124585
0.0145,0.00982
0.01475,0.0071815
0.015,0.004543
0.01525,0.00351225
0.0155,0.0024815
0.01575,0.00145075
0.016,0.00042
0.01625,0.000894
0.0165,0.001368
0.01675,0.001842
0.017,0.002316
0.01725,0.0022955
0.0175,0.002275
0.01775,0.0022545
0.018,0.002234
0.01825,0.00173925
0.0185,0.0012445
0.01875,0.00074975
0.019,0.000255
0.01925,0.000791
0.0195,0.001327
0.01975,0.001863
0.02,0.002399
0.02025,0.00190425
0.0205,0.0014095
0.02075,0.00091475
0.021,0.00042
0.02125,0.0008735
0.0215,0.001327
0.02175,0.0017805
0.022,0.002234
0.02225,0.0017805
0.0225,0.001327
0.02275,0.0008735
0.023,0.00042
0.02325,0.00042
0.0235,0.00042
0.02375,0.00042
0.024,0.00042
0.02425,0.00042
0.0245,0.00042
0.02475,0.00042
0.025,0.00042
0.02525,0.00062625
0.0255,0.0008325
0.02575,0.00103875
0.026,0.001245
0.02625,0.00101825
0.0265,0.0007915
0.02675,0.00056475
0.027,0.000338
0.02725,0.0007915
0.0275,0.001245
0.02775,0.0016985
0.028,0.002152
0.02825,0.0016985
0.0285,0.001245
0.02875,0.0007915
0.029,0.000338
0.02925,0.000338
0.0295,0.000338
0.02975,0.000338
0.03,0.000338
0.03025,0.0008325
0.0305,0.001327
0.03075,0.0018215
0.031,0.002316
0.03125,0.0018215
0.0315,0.001327
0.03175,0.0008325
0.032,0.000338
0.03225,0.00031725
0.0325,0.0002965
0.03275,0.00027575
0.033,0.000255
0.03325,0.00027575
0.0335,0.0002965
0.03375,0.00031725
0.034,0.000338
0.03425,0.0007915
0.0345,0.001245
0.03475,0.0016985
0.035,0.002152
0.03525,0.0017395
0.0355,0.001327
0.03575,0.0009145
0.036,0.000502
0.03625,0.000502
0.0365,0.000502
0.03675,0.000502
0.037,0.000502
0.03725,0.0004815
0.0375,0.000461
0.03775,0.0004405
0.038,0.00042
0.03825,0.0053675
0.0385,0.010315
0.03875,0.0152625
0.039,0.02021
0.03925,0.03812375
0.0395,0.0560375
0.03975,0.07395125
0.04,0.091865
0.04025,0.072034
0.0405,0.052203
0.04075,0.032372
0.041,0.012541
0.04125,0.01365425
0.0415,0.0147675
0.04175,0.01588075
0.042,0.016994
0.04225,0.021426
0.0425,0.025858
0.04275,0.03029
0.043,0.034722
0.04325,0.03492825
0.0435,0.0351345
0.04375,0.03534075
0.044,0.035547
0.04425,0.03282575
0.0445,0.0301045
0.04475,0.02738325
0.045,0.024662
0.04525,0.0226625
0.0455,0.020663
0.04575,0.0186635
0.046,0.016664
0.04625,0.01561275
0.0465,0.0145615
0.04675,0.01351025
0.047,0.012459
0.04725,0.0110985
0.0475,0.009738
0.04775,0.0083775
0.048,0.007017
0.04825,0.007017
0.0485,0.007017
0.04875,0.007017
0.049,0.007017
0.04925,0.006419
0.0495,0.005821
0.04975,0.005223
0.05,0.004625
0.05025,0.004254
0.0505,0.003883
0.05075,0.003512
0.051,0.003141
0.05125,0.0033265
0.0515,0.003512
0.05175,0.0036975
0.052,0.003883
0.05225,0.00330575
0.0525,0.0027285
0.05275,0.00215125
0.053,0.001574
0.05325,0.001471
0.0535,0.001368
0.05375,0.001265
0.054,0.001162
0.05425,0.0010795
0.0545,0.000997
0.05475,0.0009145
0.055,0.000832
0.05525,0.00079075
0.0555,0.0007495
0.05575,0.00070825
0.056,0.000667
0.05625,0.000935
0.0565,0.001203
0.05675,0.001471
0.057,0.001739
0.05725,0.00138875
0.0575,0.0010385
0.05775,0.00068825
0.058,0.000338
0.05825,0.0003585
0.0585,0.000379
0.05875,0.0003995
0.059,0.00042
0.05925,0.0003995
0.0595,0.000379
0.05975,0.0003585
0.06,0.000338
0.06025,0.000338
0.0605,0.000338
0.06075,0.000338
0.061,0.000338
0.06125,0.0008325
0.0615,0.001327
0.06175,0.0018215
0.062,0.002316
0.06225,0.0018215
0.0625,0.001327
0.06275,0.0008325
0.063,0.000338
0.06325,0.00031725
0.0635,0.0002965
0.06375,0.00027575
0.064,0.000255
0.06425,0.00027575
0.0645,0.0002965
0.06475,0.00031725
0.065,0.000338
0.06525,0.000338
0.0655,0.000338
0.06575,0.000338
0.066,0.000338
0.06625,0.00075025
0.0665,0.0011625
0.06675,0.00157475
0.067,0.001987
0.06725,0.0015335
0.0675,0.00108
0.06775,0.0006265
0.068,0.000173
0.06825,0.000173
0.0685,0.000173
0.06875,0.000173
0.069,0.000173
0.06925,0.0001935
0.0695,0.000214
0.06975,0.0002345
0.07,0.000255
0.07025,0.00027575
0.0705,0.0002965
0.07075,0.00031725
0.071,0.000338
0.07125,0.00039975
0.0715,0.0004615
0.07175,0.00052325
0.072,0.000585
0.07225,0.000959084
0.0725,0.001137733
0.07275,0.001178557
0.073,0.001084969
0.07325,0.000897811
0.0735,0.000674855
0.07375,0.000473807
0.074,0.000342923
0.07425,0.000368388
0.0745,0.000481941
0.07475,0.000597276
0.075,0.000660841
0.07525,0.000537846
0.0755,0.000380048
0.07575,0.000211168
0.076,7.3685e-05
0.07625,-2.9962e-05
0.0765,-7.737e-06
0.07675,3.2244e-05
0.077,6.6417e-05
0.07725,0.000168017
0.0775,0.000306457
0.07775,0.000507065
0.078,0.000725165
0.07825,0.000971587
0.0785,0.000933969
0.07875,0.000803351
0.079,0.000630913
0.07925,0.000365475
0.0795,0.000321859
0.07975,0.000331548
0.08,0.000375519
0.08025,0.000429026
0.0805,0.000468827
0.08075,0.000477384
0.081,0.000363793
0.08125,0.000248307
0.0815,0.000119536
0.08175,4.027e-06
0.082,-7.5898e-05
0.08225,-9.6839e-05
0.0825,-5.5408e-05
0.08275,-4.738e-06
0.083,4.7708e-05
0.08325,0.000254807
0.0835,0.000443613
0.08375,0.000659515
0.084,0.000850377
0.08425,0.000985861
0.0845,0.000905107
0.08475,0.000760281
0.085,0.000602061
0.08525,0.000409668
0.0855,0.000396668
0.08575,0.0004183
0.086,0.000451274
0.08625,0.000475455
0.0865,0.000477185
0.08675,0.000450909
0.087,0.000395204
0.08725,0.000207179
0.0875,9.8406e-05
0.08775,3.681e-06
0.088,-6.367e-05
0.08825,-3.5448e-05
0.0885,0.000102765
0.08875,0.000330856
0.089,0.000611247
0.08925,0.000875833
0.0895,0.001057145
0.08975,0.001114717
0.09,0.00104567
0.09025,0.00067531
0.0905,0.000479094
0.09075,0.000338811
0.091,0.000285403
0.09125,0.000426264
0.0915,0.000544285
0.09175,0.000626896
0.092,0.000633495
0.09225,0.000406702
0.0925,0.000233151
0.09275,7.7878e-05
0.093,-2.9597e-05
0.09325,-7.8547e-05
0.0935,-7.7234e-05
0.09375,-4.6051e-05
0.094,-1.0262e-05
0.09425,6.718e-06
0.0945,-1.6677e-05
0.09475,-4.0266e-05
0.095,-2.3959e-05
0.09525,0.000263652
0.0955,0.000507733
0.09575,0.000744068
0.096,0.000908907
0.09625,0.000903236
0.0965,0.000758978
0.09675,0.000581921
0.097,0.000429964
0.09725,0.000333595
0.0975,0.00037693
0.09775,0.000435526
0.098,0.00047519
0.09825,0.000474522
0.0985,0.0004303
0.09875,0.000354924
0.099,0.000265192
0.09925,9.9117e-05
0.0995,3.8503e-05
0.09975,-3.232e-06
0.1,-2.6678e-05
0.10025,1.705e-06
0.1005,0.000109492
0.10075,0.000310389
0.101,0.000573601
0.10125,0.001013302
0.1015,0.001070874
0.10175,0.001000126
0.102,0.000836776
0.10225,0.000461877
0.1025,0.000340422
0.10275,0.00028781
0.103,0.000300417
0.10325,0.000445911
0.1035,0.000517318
0.10375,0.000546544
0.104,0.000509771
0.10425,0.000249268
0.1045,8.2165e-05
0.10475,-5.6502e-05
0.105,-0.000138455
0.10525,-0.000153217
0.1055,-0.000113729
0.10575,-4.6098e-05
0.106,1.7951e-05
0.10625,4.2312e-05
0.1065,1.122e-06
0.10675,-3.568e-05
0.107,-4.989e-06
0.10725,0.000394559
0.1075,0.000698193
0.10775,0.00096764
0.108,0.0011301
0.10825,0.001038398
0.1085,0.000839016
0.10875,0.000618619
0.109,0.000446195
0.10925,0.000382308
0.1095,0.000461877
0.10975,0.000551818
0.11,0.000602321
0.11025,0.00050428
0.1105,0.000380503
0.11075,0.000246767
0.111,0.000130035
0.11125,4.4458e-05
0.1115,-5.378e-06
0.11175,-2.6048e-05
0.112,-2.7891e-05
0.11225,-1.2503e-05
0.1125,-7.102e-06
0.11275,3.903e-06
0.113,4.8224e-05
0.11325,0.000333097
0.1135,0.000543422
0.11375,0.000735597
0.114,0.000859313
0.11425,0.000817332
0.1145,0.000681114
0.11475,0.000521852
0.115,0.000389722
0.11525,0.000323233
0.1155,0.000374017
0.11575,0.000436786
0.116,0.000476526
0.11625,0.000418475
0.1165,0.000333846
0.11675,0.000238893
0.117,0.00015144
0.11725,8.2582e-05
0.1175,8.343e-06
0.11775,-3.663e-06
0.118,-6.183e-06
0.11825,-4.137e-06
0.1185,-3.08e-07
0.11875,1.3582e-05
0.119,6.8113e-05
0.11925,0.000399633
0.1195,0.000639285
0.11975,0.000855892
0.12,0.00099311
0.12025,0.000937314
0.1205,0.000779663
0.12075,0.000595869
0.121,0.000442751
0.12125,0.000361988
0.1215,0.000418072
0.12175,0.000489171
0.122,0.000534326
0.12225,0.000472414
0.1225,0.000378006
0.12275,0.000270811
0.123,0.000171253
0.12325,3.4983e-05
0.1235,1.525e-06
0.12375,-1.4474e-05
0.124,-1.8577e-05
0.12425,-1.7269e-05
0.1245,-1.2892e-05
0.12475,1.696e-06
0.125,5.6378e-05
0.12525,0.000380815
0.1255,0.000614777
0.12575,0.000824533
0.126,0.000957056
0.12625,0.000902393
0.1265,0.000749251
0.12675,0.000571664
0.127,0.000423653
0.12725,0.000342592
0.1275,0.000395242
0.12775,0.000463441
0.128,0.000507586
0.12825,0.000449242
0.1285,0.000359316
0.12875,0.000257332
0.129,0.000162341
0.12925,3.0363e-05
0.1295,-3.322e-06
0.12975,-2.014e-05
0.13,-2.592e-05
0.13025,-2.5196e-05
0.1305,-2.1268e-05
0.13075,-1.6156e-05
0.131,-1.6715e-05
0.13125,-5.1158e-05
0.1315,-4.8519e-05
0.13175,3.0709e-05
0.132,0.000214115
0.13225,0.00075767
0.1325,0.000979442
0.13275,0.001085713
0.133,0.001060878
0.13325,0.000726596
0.1335,0.000521837
0.13375,0.000360794
0.134,0.000283257
0.13425,0.000393929
0.1345,0.000516484
0.13475,0.000613957
0.135,0.000639588
0.13525,0.000428093
0.1355,0.000244422
0.13575,7.125e-05
0.136,-4.9874e-05
0.13625,-8.3834e-05
0.1365,-2.8673e-05
0.13675,3.3869e-05
0.137,7.2553e-05
0.13725,7.3566e-05
0.1375,3.972e-05
0.13775,-1.0153e-05
0.138,-3.7172e-05
0.13825,0.000173593
0.1385,0.000425605
0.13875,0.000708052
0.139,0.000943085
0.13925,0.001062171
0.1395,0.000939242
0.13975,0.00074964
0.14,0.000558436
0.14025,0.000362646
0.1405,0.000372818
0.14075,0.00041993
0.141,0.000469386
0.14125,0.000487243
0.1415,0.000445295
0.14175,0.000379759
0.142,0.000295181
0.14225,0.000201351
0.1425,0.000106285
0.14275,-3.8291e-05
0.143,-7.3359e-05
0.14325,-8.3024e-05
0.1435,-7.2838e-05
0.14375,-5.175e-05
0.144,-3.3311e-05
0.14425,-4.6927e-05
0.1445,-7.9475e-05
0.14475,-0.000104073
0.145,-7.0602e-05
0.14525,0.000315568
0.1455,0.00062357
0.14575,0.000911522
0.146,0.001105479
0.14625,0.001078417
0.1465,0.000897788
0.14675,0.000680763
0.147,0.000496221
0.14725,0.000377286
0.1475,0.000428041
0.14775,0.000497339
0.148,0.000543853
0.14825,0.000487091
0.1485,0.000395985
0.14875,0.000289108
0.149,0.000183126
0.14925,8.8869e-05
0.1495,1.4184e-05
0.14975,-3.7419e-05
0.15,-6.6456e-05
0.15025,-7.0621e-05
0.1505,-5.636e-05
0.15075,-3.8793e-05
0.151,-1.5801e-05
0.15125,0.000164549
0.1515,0.000358325
0.15175,0.000588828
0.152,0.000799267
0.15225,0.000967247
0.1525,0.000893851
0.15275,0.00074873
0.153,0.000583674
0.15325,0.000371809
0.1535,0.000353393
0.15375,0.000373676
0.154,0.000408218
0.15425,0.000442846
0.1545,0.000424923
0.15475,0.000380147
0.155,0.000311256
0.15525,0.000224154
0.1555,0.000130248
0.15575,-2.0823e-05
0.156,-5.7928e-05
0.15625,-6.7067e-05
0.1565,-5.591e-05
0.15675,-3.3979e-05
0.157,-1.5943e-05
0.15725,-3.027e-05
0.1575,-4.0607e-05
0.15775,9.418e-06
0.158,0.000164014
0.15825,0.000715282
0.1585,0.000976376
0.15875,0.00113183
0.159,0.001149018
0.15925,0.00083976
0.1595,0.000617131
0.15975,0.000429879
0.16,0.000326834
0.16025,0.000412795
0.1605,0.000532786
0.16075,0.000629127
0.161,0.00065192
0.16125,0.000437317
0.1615,0.000256195
0.16175,8.7201e-05
0.162,-3.3392e-05
0.16225,-9.1395e-05
0.1625,-9.3338e-05
0.16275,-6.0288e-05
0.163,-1.825e-05
0.16325,1.4023e-05
0.1635,-4.544e-06
0.16375,-3.4301e-05
0.164,-6.2922e-05
0.16425,1.3668e-05
0.1645,0.000184542
0.16475,0.000430405
0.165,0.000693276
0.16525,0.001009076
0.1655,0.000992556
0.16575,0.000874393
0.166,0.000704125
0.16625,0.000414704
0.1665,0.000351337
0.16675,0.000340028
0.167,0.000367782
0.16725,0.000458002
0.1675,0.000481401
0.16775,0.000469889
0.168,0.000414311
0.16825,0.000317378
0.1685,0.000195875
0.16875,7.3623e-05
0.169,-2.5025e-05
0.16925,-0.000102098
0.1695,-8.6046e-05
0.16975,-5.2845e-05
0.17,-2.1671e-05
0.17025,1.4374e-05
0.1705,7.9242e-05
0.17075,0.00022052
0.171,0.000427614
0.17125,0.000832317
0.1715,0.000919699
0.17175,0.000899067
0.172,0.000788475
0.17225,0.00047411
0.1725,0.000351925
0.17275,0.000283626
0.173,0.000275899
0.17325,0.000390054
0.1735,0.000455249
0.17375,0.000486234
0.174,0.00046065
0.17425,0.000252334
0.1745,0.000118072
0.17475,5.855e-06
0.175,-6.4466e-05
0.17525,-8.6184e-05
0.1755,-6.9602e-05
0.17575,-3.188e-05
0.176,4.074e-06
0.17625,1.2085e-05
0.1765,-1.743e-05
0.17675,-4.0792e-05
0.177,-5.818e-06
0.17725,0.000376172
0.1775,0.00067188
0.17775,0.000941
0.178,0.001112647
0.17825,0.001052416
0.1785,0.00086496
0.17875,0.000651191
0.179,0.000477782
0.17925,0.00039572
0.1795,0.000461294
0.17975,0.00053867
0.18,0.000582826
0.18025,0.000568527
0.1805,0.000495496
0.18075,0.000384539
0.181,0.000261785
0.18125,6.1561e-05
0.1815,2.131e-06
0.18175,-3.0227e-05
0.182,-4.1697e-05
0.18225,-3.2596e-05
0.1825,-2.3646e-05
0.18275,-1.7123e-05
0.183,-1.952e-05
0.18325,-7.2989e-05
0.1835,-0.000117159
0.18375,-0.000157102
0.184,-0.000168596
0.18425,7.1757e-05
0.1845,0.000355729
0.18475,0.000689125
0.185,0.000988974
0.18525,0.001222864
0.1855,0.001125159
0.18575,0.000935305
0.186,0.000724994
0.18625,0.000465042
0.1865,0.000445797
0.18675,0.000474721
0.187,0.000524434
0.18725,0.00056775
0.1875,0.000586379
0.18775,0.000569356
0.188,0.000511154
0.18825,0.000276742
0.1885,0.000132091
0.18875,2.155e-06
0.189,-9.0903e-05
0.18925,-0.000139995
0.1895,-0.000111246
0.18975,-7.1217e-05
0.19,-4.2166e-05
0.19025,-7.3378e-05
0.1905,-0.000121285
0.19075,-0.000145263
0.191,-8.8069e-05
0.19125,0.000350162
0.1915,0.000645595
0.19175,0.00089152
0.192,0.001025075
0.19225,0.000902317
0.1925,0.000712312
0.19275,0.000514153
0.193,0.00036448
0.19325,0.000293755
0.1935,0.000338527
0.19375,0.000391077
0.194,0.000425795
0.19425,0.000429343
0.1945,0.000403419
0.19475,0.000356729
0.195,0.000295835
0.19525,0.000140183
0.1955,5.6018e-05
0.19575,-1.8705e-05
0.196,-7.3994e-05
0.19625,-0.000107636
0.1965,-9.1822e-05
0.19675,-6.6608e-05
0.197,-4.436e-05
0.19725,3.6394e-05
0.1975,0.000172314
0.19775,0.000390902
0.198,0.000652792
0.19825,0.001045632
0.1985,0.001080681
0.19875,0.000998549
0.199,0.000838149
0.19925,0.000650883
0.1995,0.000368767
0.19975,0.000320623
0.2,0.000339275
0.20025,0.000409047
0.2005,0.000496998
0.20075,0.000565675
0.201,0.000582508
0.20125,0.000401528
0.2015,0.000237519
0.20175,7.3865e-05
0.202,-5.2513e-05
0.20225,-0.000131926
0.2025,-9.953e-05
0.20275,-4.9618e-05
0.203,-9.789e-06
0.20325,-2.2306e-05
0.2035,-6.6892e-05
0.20375,-0.000115046
0.204,-0.000150157
0.20425,-0.000140923
0.2045,-4.887e-05
0.20475,0.000141562
0.205,0.000420399
0.20525,0.00100558
0.2055,0.001170494
0.20575,0.001196253
0.206,0.001091872
0.20625,0.000900232
0.2065,0.000677973
0.20675,0.000480572
0.207,0.000355454
0.20725,0.000391106
0.2075,0.000505578
0.20775,0.000616724
0.208,0.00067288
0.20825,0.000524974
0.2085,0.000352915
0.20875,0.000173508
0.209,2.9657e-05
0.20925,-7.2075e-05
0.2095,-4.4914e-05
0.20975,1.326e-06
0.21,3.5475e-05
0.21025,4.761e-06
0.2105,-5.0234e-05
0.21075,-0.000107731
0.211,-0.000144277
0.21125,1.1285e-05
0.2115,0.000251694
0.21175,0.000557081
0.212,0.000851443
0.21225,0.001129835
0.2125,0.00106527
0.21275,0.000900843
0.213,0.000696189
0.21325,0.000508103
0.2135,0.000374964
0.21375,0.00030785
0.214,0.000302601
0.21425,0.000425406
0.2145,0.00050327
0.21475,0.000554177
0.215,0.000552211
0.21525,0.000350807
0.2155,0.000186281
0.21575,2.8127e-05
0.216,-8.7899e-05
0.21625,-0.000133736
0.2165,-8.1982e-05
0.21675,-1.7317e-05
0.217,3.006e-05
0.21725,1.596e-06
0.2175,-6.0667e-05
0.21775,-0.000126416
0.218,-0.00017368
0.21825,-0.000190659
0.2185,-0.000173732
0.21875,-0.000107087
0.219,3.8825e-05
0.21925,0.000572839
0.2195,0.000866253
0.21975,0.001084694
0.22,0.001181158
0.22025,0.000996611
0.2205,0.000790176
0.22075,0.000582276
0.221,0.000430395
0.22125,0.000405049
0.2215,0.000496543
0.22175,0.000593642
0.222,0.000645595
0.22225,0.000526997
0.2225,0.000384226
0.22275,0.000232317
0.223,0.000104707
0.22325,-2.1344e-05
0.2235,-2.8005e-05
0.22375,-1.7478e-05
0.224,-9.443e-06
0.22425,-3.9129e-05
0.2245,-7.1639e-05
0.22475,-0.000104452
0.225,-0.000132883
0.22525,-0.000154937
0.2255,-0.000166132
0.22575,-0.000149399
0.226,-6.0742e-05
0.22625,0.000407697
0.2265,0.0007145
0.22675,0.000975178
0.227,0.001125216
0.22725,0.00102382
0.2275,0.000831379
0.22775,0.000619439
0.228,0.000450663
0.22825,0.00037857
0.2285,0.00045144
0.22875,0.000538088
0.229,0.000590093
0.22925,0.000504028
0.2295,0.000385652
0.22975,0.00025602
0.23,0.000141102
0.23025,8.958e-06
0.2305,-1.1475e-05
0.23075,-1.401e-05
0.231,-1.2205e-05
0.23125,-1.3925e-05
0.2315,-2.1813e-05
0.23175,-3.3572e-05
0.232,-4.9576e-05
0.23225,-8.3128e-05
0.2325,-4.5269e-05
0.23275,8.5553e-05
0.233,0.000311825
0.23325,0.000846365
0.2335,0.001015827
0.23375,0.001059959
0.234,0.000980806
0.23425,0.000610532
0.2345,0.000424359
0.23475,0.000294073
0.235,0.000246885
0.23525,0.000388756
0.2355,0.000509339
0.23575,0.000599081
0.236,0.000616027
0.23625,0.00039581
0.2365,0.000212783
0.23675,4.3198e-05
0.237,-7.288e-05
0.23725,-0.000116245
0.2375,-9.3868e-05
0.23775,-3.2259e-05
0.238,3.3064e-05
0.23825,6.7772e-05
0.2385,2.6772e-05
0.23875,-3.3425e-05
0.239,-9.1907e-05
0.23925,-0.000158699
0.2395,-0.000159315
0.23975,-0.000123503
0.24,-1.347e-05
0.24025,0.000484149
0.2405,0.000793615
0.24075,0.001046996
0.241,0.001184465
0.24125,0.001057225
0.2415,0.000854855
0.24175,0.000640744
0.242,0.0004798
0.24225,0.000438719
0.2425,0.000521141
0.24275,0.000606514
0.243,0.000647135
0.24325,0.000524988
0.2435,0.000391887
0.24375,0.000251604
0.244,0.000129632
0.24425,3.8702e-05
0.2445,-1.7644e-05
0.24475,-4.4776e-05
0.245,-5.1869e-05
0.24525,-4.0015e-05
0.2455,-3.2165e-05
0.24575,-2.6712e-05
0.246,-3.0109e-05
0.24625,-8.5691e-05
0.2465,-0.000131903
0.24675,-0.000175215
0.247,-0.000202309
0.24725,-0.00011778
0.2475,6.8109e-05
0.24775,0.000356108
0.248,0.000693631
0.24825,0.001196835
0.2485,0.001247728
0.24875,0.001158531
0.249,0.000974055
0.24925,0.00075804
0.2495,0.000435161
0.24975,0.000378091
0.25,0.000394967
0.25025,0.000467013
0.2505,0.000559455
0.25075,0.000631994
0.251,0.000648448
0.25125,0.000452776
0.2515,0.000275316
0.25175,9.6757e-05
0.252,-4.2469e-05
0.25225,-0.000135262
0.2525,-0.000103912
0.25275,-5.2717e-05
0.253,-1.2053e-05
0.25325,-2.8076e-05
0.2535,-7.8821e-05
0.25375,-0.000134271
0.254,-0.000176247
0.25425,-0.000190162
0.2545,-0.000162385
0.25475,-9.5588e-05
0.255,4.5505e-05
0.25525,0.000561961
0.2555,0.000846516
0.25575,0.00105895
0.256,0.001152145
0.25625,0.001114167
0.2565,0.000968976
0.25675,0.000767193
0.257,0.000571725
0.25725,0.000386889
0.2575,0.000409644
0.25775,0.00046869
0.258,0.000522629
0.25825,0.000517076
0.2585,0.000452752
0.25875,0.000366886
0.259,0.000273322
0.25925,9.8676e-05
0.2595,2.9695e-05
0.25975,-2.1391e-05
0.26,-5.2992e-05
0.26025,-6.1752e-05
0.2605,-4.9135e-05
0.26075,-3.5405e-05
0.261,-3.3231e-05
0.26125,-8.0105e-05
0.2615,-7.9513e-05
0.26175,5.306e-06
0.262,0.000197016
0.26225,0.000742287
0.2625,0.000953797
0.26275,0.0010472
0.263,0.001009517
0.26325,0.000668749
0.2635,0.000473034
0.26375,0.00033197
0.264,0.000278993
0.26425,0.000313616
0.2645,0.000403949
0.26475,0.000502185
0.265,0.000559971
0.26525,0.000469917
0.2655,0.000343691
0.26575,0.000206421
0.266,9.0091e-05
0.26625,-2.2315e-05
0.2665,-2.5305e-05
0.26675,-1.1977e-05
0.267,-1.213e-06
0.26725,-2.3642e-05
0.2675,-5.1949e-05
0.26775,-8.047e-05
0.268,-0.000103372
0.26825,-0.000122915
0.2685,-8.4535e-05
0.26875,4.0099e-05
0.269,0.000267295
0.26925,0.000563818
0.2695,0.000861118
0.26975,0.001082368
0.27,0.001176857
0.27025,0.00097757
0.2705,0.000764393
0.27075,0.000553059
0.271,0.000402026
0.27125,0.00038641
0.2715,0.000485196
0.27175,0.000588317
0.272,0.000644108
0.27225,0.000522136
0.2725,0.000373008
0.27275,0.000215181
0.273,8.406e-05
0.27325,-3.5074e-05
0.2735,-3.2548e-05
0.27375,-1.31e-05
0.274,1.549e-06
0.27425,-3.1497e-05
0.2745,-7.2373e-05
0.27475,-0.000113108
0.275,-0.000145111
0.27525,-0.000170354
0.2755,-0.000162807
0.27575,-0.000124289
0.276,-1.5507e-05
0.27625,0.000465051
0.2765,0.000759741
0.27675,0.0009987
0.277,0.001125116
0.27725,0.001117361
0.2775,0.000993494
0.27775,0.000800082
0.278,0.00060199
0.27825,0.000389386
0.2785,0.000395317
0.27875,0.000440676
0.279,0.000490408
0.27925,0.0005077
0.2795,0.000465156
0.27975,0.000397525
0.28,0.000311697
0.28025,0.000113491
0.2805,2.3347e-05
0.28075,-4.6695e-05
0.281,-8.8264e-05
0.28125,-0.000101297
0.2815,-9.1997e-05
0.28175,-4.6932e-05
0.282,-3.912e-05
0.28225,-5.2887e-05
0.2825,-8.1508e-05
0.28275,-9.1855e-05
0.283,-2.8569e-05
0.28325,0.000415997
0.2835,0.000719826
0.28375,0.000976301
0.284,0.00111945
0.28425,0.001000008
0.2845,0.00080003
0.28475,0.000584583
0.285,0.000417798
0.28525,0.000355829
0.2855,0.000430869
0.28575,0.000515361
0.286,0.000563505
0.28625,0.000470964
0.2865,0.000354175
0.28675,0.000227788
0.287,0.000117452
0.28725,-1.2167e-05
0.2875,-3.3316e-05
0.28775,-3.6358e-05
0.288,-3.0819e-05
0.28825,-1.7525e-05
0.2885,-1.5303e-05
0.28875,-2.0302e-05
0.289,-7.2473e-05
0.28925,-7.2464e-05
0.2895,-0.000114842
0.28975,-0.000155492
0.29,-0.000182217
0.29025,-0.0001342
0.2905,5.855e-06
0.29075,0.000248615
0.291,0.000560099
0.29125,0.001101921
0.2915,0.001203776
0.29175,0.001164766
0.292,0.001014638
0.29225,0.000605126
0.2925,0.000445016
0.29275,0.000351626
0.293,0.000336499
0.29325,0.000485248
0.2935,0.000580755
0.29375,0.000633988
0.294,0.000610096
0.29425,0.000501375
0.2945,0.000327474
0.29475,0.000132949
0.295,-3.3723e-05
0.29525,-0.000161651
0.2955,-0.000123147
0.29575,-5.0959e-05
0.296,1.8259e-05
0.29625,4.4141e-05
0.2965,-3.018e-06
0.29675,-6.6499e-05
0.297,-0.000123882
0.29725,-9.09115e-05
0.2975,-5.7941e-05
0.29775,-2.49705e-05
0.298,8e-06
0.29825,0.010315
0.2985,0.020622
0.29875,0.030929
0.299,0.041236
0.29925,0.03181525
0.2995,0.0223945
0.29975,0.01297375
0.3,0.003553
0.30025,0.00324375
0.3005,0.0029345
0.30075,0.00262525
0.301,0.002316
0.30125,0.002316
0.3015,0.002316
0.30175,0.002316
0.302,0.002316
0.30225,0.002316
0.3025,0.002316
0.30275,0.002316
0.303,0.002316
0.30325,0.00178025
0.3035,0.0012445
0.30375,0.00070875
0.304,0.000173
0.30425,0.0007295
0.3045,0.001286
0.30475,0.0018425
0.305,0.002399
0.30525,0.002399
0.3055,0.002399
0.30575,0.002399
0.306,0.002399
0.30625,0.0018425
0.3065,0.001286
0.30675,0.0007295
0.307,0.000173
0.30725,0.00132725
0.3075,0.0024815
0.30775,0.00363575
0.308,0.00479
0.30825,0.004254
0.3085,0.003718
0.30875,0.003182
0.309,0.002646
0.30925,0.00303775
0.3095,0.0034295
0.30975,0.00382125
0.31,0.004213
0.31025,0.00378
0.3105,0.003347
0.31075,0.002914
0.311,0.002481
0.31125,0.0019245
0.3115,0.001368
0.31175,0.0008115
0.312,0.000255
0.31225,0.00074975
0.3125,0.0012445
0.31275,0.00173925
0.313,0.002234
0.31325,0.00171875
0.3135,0.0012035
0.31375,0.00068825
0.314,0.000173
0.31425,0.000173
0.3145,0.000173
0.31475,0.000173
0.315,0.000173
0.31525,0.00075
0.3155,0.001327
0.31575,0.001904
0.316,0.002481
0.31625,0.00241925
0.3165,0.0023575
0.31675,0.00229575
0.317,0.002234
0.31725,0.00176
0.3175,0.001286
0.31775,0.000812
0.318,0.000338
0.31825,0.00087375
0.3185,0.0014095
0.31875,0.00194525
0.319,0.002481
0.31925,0.0019245
0.3195,0.001368
0.31975,0.0008115
0.32,0.000255
0.32025,0.0008115
0.3205,0.001368
0.32075,0.0019245
0.321,0.002481
0.32125,0.00243975
0.3215,0.0023985
0.32175,0.00235725
0.322,0.002316
0.32225,0.0018215
0.3225,0.001327
0.32275,0.0008325
0.323,0.000338
0.32325,0.00087375
0.3235,0.0014095
0.32375,0.00194525
0.324,0.002481
0.32425,0.001904
0.3245,0.001327
0.32475,0.00075
0.325,0.000173
0.32525,0.000173
0.3255,0.000173
0.32575,0.000173
0.326,0.000173
0.32625,0.001018
0.3265,0.001863
0.32675,0.002708
0.327,0.003553
0.32725,-0.000257404
0.3275,0.000255432
0.32775,0.000847412
0.328,0.001378649
0.32825,0.002030812
0.3285,0.002175828
0.32875,0.002263096
0.329,0.002288182
0.32925,0.001952407
0.3295,0.00155492
0.32975,0.001073997
0.33,0.000633538
0.33025,0.000399449
0.3305,0.000703248
0.33075,0.001172796
0.331,0.001637251
0.33125,0.001996762
0.3315,0.001809708
0.33175,0.001465358
0.332,0.001094587
0.33225,0.000812855
0.3325,0.000676334
0.33275,0.00067487
0.333,0.000762171
0.33325,0.000993598
0.3335,0.00107574
0.33375,0.001156219
0.334,0.00125166
0.33425,0.001389247
0.3345,0.001355922
0.33475,0.001233027
0.335,0.001043453
0.33525,0.000722119
0.3355,0.000749176
0.33575,0.000932325
0.336,0.001210561
0.33625,0.001651422
0.3365,0.001660784
0.33675,0.001519217
0.337,0.00130576
0.33725,0.001069903
0.3375,0.001128726
0.33775,0.001261098
0.338,0.001399902
0.33825,0.001481817
0.3385,0.00147264
0.33875,0.001387092
0.339,0.001291594
0.33925,0.001291627
0.3395,0.001379867
0.33975,0.001460408
0.34,0.001479491
0.34025,0.001257592
0.3405,0.001076081
0.34075,0.000951233
0.341,0.000950059
0.34125,0.001266318
0.3415,0.001437922
0.34175,0.001510717
0.342,0.001440964
0.34225,0.001035441
0.3425,0.00089522
0.34275,0.000891434
0.343,0.001015638
0.34325,0.001367217
0.3435,0.001434137
0.34375,0.001379507
0.344,0.001248879
0.34425,0.001079663
0.3445,0.001117981
0.34475,0.001210471
0.345,0.001301979
0.34525,0.001340487
0.3455,0.001306437
0.34575,0.001237442
0.346,0.001198778
0.34625,0.001322233
0.3465,0.001426675
0.34675,0.001482457
0.347,0.001450188
0.34725,0.001145147
0.3475,0.00100856
0.34775,0.000987524
0.348,0.001097188
0.34825,0.001476781
0.3485,0.001577083
0.34875,0.001539442
0.349,0.001371277
0.34925,0.00098958
0.3495,0.000958776
0.34975,0.001062043
0.35,0.001245814
0.35025,0.001523234
0.3505,0.001501237
0.35075,0.001386206
0.351,0.001252717
0.35125,0.001167419
0.3515,0.001154736
0.35175,0.001195409
0.352,0.00124589
0.35225,0.001224068
0.3525,0.001124548
0.35275,0.001011762
0.353,0.000956398
0.35325,0.001133294
0.3535,0.001294522
0.35375,0.001409998
0.354,0.001421682
0.35425,0.001136946
0.3545,0.000989216
0.35475,0.000953086
0.355,0.001048887
0.35525,0.001423122
0.3555,0.001531501
0.35575,0.001509708
0.356,0.001368463
0.35625,0.001066459
0.3565,0.001053525
0.35675,0.001143162
0.357,0.001282133
0.35725,0.001435426
0.3575,0.00136681
0.35775,0.001232472
0.358,0.001114149
0.35825,0.001144929
0.3585,0.001269441
0.35875,0.001387513
0.359,0.001438927
0.35925,0.001390967
0.3595,0.001253385
0.35975,0.001093729
0.36,0.001004253
0.36025,0.001179098
0.3605,0.001361091
0.36075,0.001497437
0.361,0.001520894
0.36125,0.001205714
0.3615,0.001004082
0.36175,0.000907126
0.362,0.000959207
0.36225,0.001337128
0.3625,0.001482803
0.36275,0.001500886
0.363,0.001389702
0.36325,0.001095008
0.3635,0.001066573
0.36375,0.001138202
0.364,0.001264376
0.36425,0.00137629
0.3645,0.001412382
0.36475,0.00134657
0.365,0.001211953
0.36525,0.001044684
0.3655,0.001100149
0.36575,0.001218799
0.366,0.001336972
0.36625,0.001354899
0.3665,0.001245837
0.36675,0.001141305
0.367,0.0011144
0.36725,0.001319456
0.3675,0.001444712
0.36775,0.001493813
0.368,0.00142848
0.36825,0.00105406
0.3685,0.000917511
0.36875,0.000917373
0.369,0.001055927
0.36925,0.001462634
0.3695,0.001553612
0.36975,0.001495433
0.37,0.001297
0.37025,0.001037445
0.3705,0.000838945
0.37075,0.000789782
0.371,0.000906401
0.37125,0.001374238
0.3715,0.001531151
0.37175,0.001544554
0.372,0.001425131
0.37225,0.001120019
0.3725,0.001084633
0.37275,0.001142736
0.373,0.001250532
0.37325,0.001387959
0.3735,0.001349503
0.37375,0.001281986
0.374,0.00127902
0.37425,0.001783362
0.3745,0.002306469
0.37475,0.002929391
0.375,0.003556666
0.37525,0.004536506
0.3755,0.004819759
0.37575,0.004989524
0.376,0.005095175
0.37625,0.005191871
0.3765,0.005306936
0.37675,0.005444078
0.377,0.005614298
0.37725,0.006089493
0.3775,0.006355108
0.37775,0.006576434
0.378,0.006755234
0.37825,0.006697306
0.3785,0.006565466
0.37875,0.00639588
0.379,0.006239555
0.37925,0.006105535
0.3795,0.006125007
0.37975,0.006156243
0.38,0.006160824
0.38025,0.005986046
0.3805,0.005818464
0.38075,0.005627966
0.381,0.005444547
0.38125,0.005181088
0.3815,0.005121824
0.38175,0.005104447
0.382,0.005107588
0.38225,0.0050661
0.3825,0.005006305
0.38275,0.004934799
0.383,0.00486461
0.38325,0.00476175
0.3835,0.004745988
0.38375,0.004758732
0.384,0.004794057
0.38425,0.004836412
0.3845,0.004876947
0.38475,0.00490851
0.385,0.004934506
0.38525,0.004956417
0.3855,0.004949927
0.38575,0.004940224
0.386,0.004941309
0.38625,0.004988923
0.3865,0.00502672
0.38675,0.005060756
0.387,0.005089381
0.38725,0.005124738
0.3875,0.005139709
0.38775,0.005155964
0.388,0.00517998
0.38825,0.00524535
0.3885,0.005278931
0.38875,0.005302909
0.389,0.005317207
0.38925,0.005317558
0.3895,0.005309996
0.38975,0.005296205
0.39,0.005276946
0.39025,0.005235515
0.3905,0.00521979
0.39075,0.005212002
0.391,0.005209429
0.39125,0.005207169
0.3915,0.005198234
0.39175,0.005186243
0.392,0.005176298
0.39225,0.005182799
0.3925,0.005185551
0.39275,0.005177511
0.393,0.005154571
0.39325,0.005089954
0.3935,0.005062873
0.39375,0.005049797
0.394,0.005051275
0.39425,0.005094208
0.3945,0.005119347
0.39475,0.005134493
0.395,0.005133091
0.39525,0.005117452
0.3955,0.005089158
0.39575,0.005060789
0.396,0.005038782
0.39625,0.005029416
0.3965,0.005039602
0.39675,0.005053952
0.397,0.005066645
0.39725,0.00507864
0.3975,0.005081872
0.39775,0.00508668
0.398,0.005092394
0.39825,0.005112093
0.3985,0.005126306
0.39875,0.005144224
0.399,0.005159977
0.39925,0.005172892
0.3995,0.005171722
0.39975,0.005171556
0.4,0.005173209
0.40025,0.005187181
0.4005,0.005194131
0.40075,0.005199532
0.401,0.005199864
0.40125,0.005194738
0.4015,0.005181174
0.40175,0.005147815
0.402,0.005131902
0.40225,0.005118617
0.4025,0.005104153
0.40275,0.005094587
0.403,0.005091091
0.40325,0.005116177
0.4035,0.005134441
0.40375,0.005150142
0.404,0.005159465
0.40425,0.005167756
0.4045,0.005163919
0.40475,0.005157675
0.405,0.005146569
0.40525,0.005135464
0.4055,0.005140813
0.40575,0.005154832
0.406,0.005166837
0.40625,0.005163265
0.4065,0.0051434
0.40675,0.005122412
0.407,0.005107962
0.40725,0.00512741
0.4075,0.005147702
0.40775,0.005161901
0.408,0.005158546
0.40825,0.005141439
0.4085,0.005114997
0.40875,0.005088888
0.409,0.005074628
0.40925,0.005089513
0.4095,0.005114462
0.40975,0.005142064
0.41,0.005166406
0.41025,0.005175545
0.4105,0.005160375
0.41075,0.005136398
0.411,0.00511377
0.41125,0.005086614
0.4115,0.00508794
0.41175,0.005092887
0.412,0.005101874
0.41225,0.005130362
0.4125,0.005151757
0.41275,0.005166709
0.413,0.005168879
0.41325,0.005114287
0.4135,0.005075229
0.41375,0.005051138
0.414,0.005053583
0.41425,0.005079796
0.4145,0.005120394
0.41475,0.005158205
0.415,0.005182836
0.41525,0.005167065
0.4155,0.005131475
0.41575,0.00508704
0.416,0.005047272
0.41625,0.005016254
0.4165,0.00503106
0.41675,0.005053824
0.417,0.005078295
0.41725,0.005111131
0.4175,0.005119664
0.41775,0.005119219
0.418,0.005111321
0.41825,0.005072339
0.4185,0.005050806
0.41875,0.005031941
0.419,0.005021869
0.41925,0.005030728
0.4195,0.005048006
0.41975,0.005067213
0.42,0.005086259
0.42025,0.005095369
0.4205,0.005094081
0.42075,0.005081336
0.421,0.005065067
0.42125,0.005042733
0.4215,0.005042113
0.42175,0.00504605
0.422,0.005053583
0.42225,0.005072742
0.4225,0.005086334
0.42275,0.005099685
0.423,0.005110928
0.42325,0.005120304
0.4235,0.005121242
0.42375,0.005121493
0.424,0.005123942
0.42425,0.005119678
0.4245,0.005103878
0.42475,0.005077617
0.425,0.005048504
0.42525,0.005030231
0.4255,0.005052555
0.42575,0.005084003
0.426,0.005114936
0.42625,0.005133673
0.4265,0.005134924
0.42675,0.005125079
0.427,0.005118882
0.42725,0.005125785
0.4275,0.00514845
0.42775,0.005173674
0.428,0.005191885
0.42825,0.005174129
0.4285,0.005138629
0.42875,0.005096819
0.429,0.0050642
0.42925,0.005052057
0.4295,0.00507196
0.42975,0.005100192
0.43,0.005133735
0.43025,0.005170419
0.4305,0.005162583
0.43075,0.005137042
0.431,0.005102741
0.43125,0.005035603
0.4315,0.005014122
0.43175,0.005002221
0.432,0.005002799
0.43225,0.005019054
0.4325,0.00502736
0.43275,0.005037366
0.433,0.005049243
0.43325,0.005053957
0.4335,0.005050915
0.43375,0.005042634
0.434,0.005036248
0.43425,0.005048277
0.4345,0.005060884
0.43475,0.005070866
0.435,0.005075698
0.43525,0.005070676
0.4355,0.005060642
0.43575,0.00505182
0.436,0.005042534
0.43625,0.005036968
0.4365,0.005042961
0.43675,0.005055648
0.437,0.005068781
0.43725,0.005085993
0.4375,0.005087997
0.43775,0.005086495
0.438,0.005081398
0.43825,0.005070368
0.4385,0.00505977
0.43875,0.005046945
0.439,0.005034253
0.43925,0.005027791
0.4395,0.005028861
0.43975,0.00503747
0.44,0.005051451
0.44025,0.005068009
0.4405,0.005065043
0.44075,0.00505481
0.441,0.005041757
0.44125,0.005024688
0.4415,0.005027805
0.44175,0.005039341
0.442,0.005056492
0.44225,0.005098776
0.4425,0.005112998
0.44275,0.005117139
0.443,0.005108189
0.44325,0.005068791
0.4435,0.005046997
0.44375,0.005029771
0.444,0.005019964
0.44425,0.005037555
0.4445,0.005064171
0.44475,0.005097766
0.445,0.005123132
0.44525,0.005121957
0.4455,0.005091484
0.44575,0.005049343
0.446,0.005006841
0.44625,0.004977728
0.4465,0.004966973
0.44675,0.004971464
0.447,0.004987999
0.44725,0.005029056
0.4475,0.005044212
0.44775,0.005051242
0.448,0.005049376
0.44825,0.005017823
0.4485,0.004999047
0.44875,0.004989254
0.449,0.004990325
0.44925,0.0050315
0.4495,0.005061471
0.44975,0.005086903
0.45,0.005097061
0.45025,0.005074154
0.4505,0.005057738
0.45075,0.00505192
0.451,0.005056435
0.45125,0.005090878
0.4515,0.005107573
0.45175,0.005120081
0.452,0.00512172
0.45225,0.005115391
0.4525,0.005102428
0.45275,0.005085785
0.453,0.005072595
0.45325,0.005069269
0.4535,0.00508064
0.45375,0.005092048
0.454,0.005096516
0.45425,0.005067782
0.4545,0.005042833
0.45475,0.005021594
0.455,0.005011498
0.45525,0.005040331
0.4555,0.005065588
0.45575,0.005084264
0.456,0.00508714
0.45625,0.005059908
0.4565,0.005041521
0.45675,0.005025806
0.457,0.005016307
0.45725,0.005029942
0.4575,0.005047973
0.45775,0.005072571
0.458,0.005110568
0.45825,0.005166804
0.4585,0.005235681
0.45875,0.005311162
0.459,0.005375007
0.45925,0.005417168
0.4595,0.005385307
0.45975,0.005330596
0.46,0.00526847
0.46025,0.005188067
0.4605,0.005195486
0.46075,0.005243446
0.461,0.005322001
0.46125,0.005513674
0.4615,0.005595286
0.46175,0.005652986
0.462,0.005680953
0.46225,0.005664205
0.4625,0.005645553
0.46275,0.005639659
0.463,0.005663134
0.46325,0.005797093
0.4635,0.005879438
0.46375,0.005943359
0.464,0.005973809
0.46425,0.005964153
0.4645,0.005923603
0.46475,0.005869755
0.465,0.005822292
0.46525,0.005797808
0.4655,0.005821331
0.46575,0.005853248
0.466,0.005879751
0.46625,0.005879571
0.4665,0.005854978
0.46675,0.005825154
0.467,0.005798755
0.46725,0.005772769
0.4675,0.005770017
0.46775,0.005771139
0.468,0.005776304
0.46825,0.005789503
0.4685,0.005794098
0.46875,0.005795017
0.469,0.005790829
0.46925,0.005769614
0.4695,0.005760186
0.46975,0.005755756
0.47,0.005756945
0.47025,0.005767041
0.4705,0.00577132
0.47075,0.005772783
0.471,0.005770372
0.47125,0.005765781
0.4715,0.005759182
0.47175,0.005754979
0.472,0.005759437
0.47225,0.00580346
0.4725,0.005832692
0.47275,0.005855404
0.473,0.005864846
0.47325,0.005840035
0.4735,0.005812485
0.47375,0.005784884
0.474,0.005766913
0.47425,0.005779748
0.4745,0.005803498
0.47475,0.005827414
0.475,0.005843441
0.47525,0.005840665
0.4755,0.00582865
0.47575,0.005818706
0.476,0.005809543
0.47625,0.005785618
0.4765,0.005769713
0.47675,0.005755808
0.477,0.005750876
0.47725,0.005758684
0.4775,0.005775986
0.47775,0.005796178
0.478,0.005811779
0.47825,0.005808345
0.4785,0.005791673
0.47875,0.005769439
0.479,0.005750043
0.47925,0.005728567
0.4795,0.005724341
0.47975,0.005718395
0.48,0.005712136
0.48025,0.005706167
0.4805,0.005711795
0.48075,0.005720503
0.481,0.005729149
0.48125,0.005746774
0.4815,0.005757751
0.48175,0.005770334
0.482,0.005778374
0.48225,0.00577032
0.4825,0.00575523
0.48275,0.00574078
0.483,0.005729107
0.48325,0.005725847
0.4835,0.005729358
0.48375,0.005760603
0.484,0.005780885
0.48425,0.005798277
0.4845,0.005803488
0.48475,0.00579912
0.485,0.005784268
0.48525,0.005746707
0.4855,0.00573717
0.48575,0.005738165
0.486,0.005740145
0.48625,0.005732447
0.4865,0.005723668
0.48675,0.005718906
0.487,0.005720096
0.48725,0.005729798
0.4875,0.005730078
0.48775,0.005719688
0.488,0.005704333
0.48825,0.005661917
0.4885,0.005654763
0.48875,0.005651896
0.489,0.005653915
0.48925,0.005662864
0.4895,0.005677717
0.48975,0.005696507
0.49,0.005713771
0.49025,0.005720906
0.4905,0.005714785
0.49075,0.005697573
0.491,0.005677935
0.49125,0.005653251
0.4915,0.00566077
0.49175,0.005682038
0.492,0.005714661
0.49225,0.005784268
0.4925,0.005808473
0.49275,0.005821951
0.493,0.005822491
0.49325,0.005788896
0.4935,0.005757083
0.49375,0.005724269
0.494,0.005694616
0.49425,0.005672667
0.4945,0.005684127
0.49475,0.005709152
0.495,0.005735806
0.49525,0.005770348
0.4955,0.005774688
0.49575,0.005773617
0.496,0.005766899
0.49625,0.005755642
0.4965,0.005737208
0.49675,0.005715348
0.497,0.005691309
0.49725,0.005651617
0.4975,0.005646481
0.49775,0.005658444
0.498,0.005686311
0.49825,0.005765047
0.4985,0.005791512
0.49875,0.005799812
0.499,0.005793203
0.49925,0.005761186
0.4995,0.005742543
0.49975,0.005724966
0.5,0.005714401
0.50025,0.005734778
0.5005,0.005766075
0.50075,0.005801508
0.501,0.00583065
0.50125,0.005858176
0.5015,0.005882996
0.50175,0.005928014
0.502,0.005986847
0.50225,0.00604151
0.5025,0.006071396
0.50275,0.006048565
0.503,0.006015856
0.50325,0.005986235
0.5035,0.005966209
0.50375,0.005954559
0.504,0.005948012
0.50425,0.005936802
0.5045,0.005920121
0.50475,0.005894097
0.505,0.00586713
0.50525,0.00582739
0.5055,0.005816901
0.50575,0.005804924
0.506,0.005786513
0.50625,0.005718594
0.5065,0.005677617
0.50675,0.005647216
0.507,0.005632699
0.50725,0.005631501
0.5075,0.005630946
0.50775,0.005627881
0.508,0.005620054
0.50825,0.005603084
0.5085,0.005593907
0.50875,0.005584583
0.509,0.005576264
0.50925,0.005576534
0.5095,0.005589042
0.50975,0.005616994
0.51,0.005656217
0.51025,0.005732854
0.5105,0.005752615
0.51075,0.005757196
0.511,0.005746736
0.51125,0.005706252
0.5115,0.005690082
0.51175,0.005683762
0.512,0.005691485
0.51225,0.005752861
0.5125,0.005790114
0.51275,0.005815266
0.513,0.005820464
0.51325,0.00578883
0.5135,0.005782988
0.51375,0.005802347
0.514,0.005851841
0.51425,0.006016813
0.5145,0.006113163
0.51475,0.006205529
0.515,0.006287951
0.51525,0.006355278
0.5155,0.006406677
0.51575,0.006445398
0.516,0.006479055
0.51625,0.006550708
0.5165,0.006587506
0.51675,0.006618992
0.517,0.006643742
0.51725,0.006689034
0.5175,0.006713921
0.51775,0.006737634
0.518,0.006758569
0.51825,0.006781102
0.5185,0.006776483
0.51875,0.006763283
0.519,0.006746815
0.51925,0.00671413
0.5195,0.006693156
0.51975,0.006664228
0.52,0.006627065
0.52025,0.006545288
0.5205,0.006515417
0.52075,0.00650127
0.521,0.006502355
0.52125,0.006516421
0.5215,0.006534301
0.52175,0.006547325
0.522,0.006547846
0.52225,0.006495755
0.5225,0.00645061
0.52275,0.006402731
0.523,0.006359722
0.52325,0.006316135
0.5235,0.00631948
0.52375,0.006335091
0.524,0.006359068
0.52425,0.006392981
0.5245,0.00639172
0.52475,0.006381307
0.525,0.006369837
0.52525,0.006368397
0.5255,0.006384339
0.52575,0.00641042
0.526,0.00644104
0.52625,0.006481471
0.5265,0.006476487
0.52675,0.006460005
0.527,0.006443186
0.52725,0.006434611
0.5275,0.006437022
0.52775,0.006449222
0.528,0.006491184
0.52825,0.006515076
0.5285,0.006533098
0.52875,0.006540579
0.529,0.006534638
0.52925,0.006485347
0.5295,0.0064553
0.52975,0.006431209
0.53,0.006420592
0.53025,0.006454106
0.5305,0.006496362
0.53075,0.006542929
0.531,0.006581735
0.53125,0.006594669
0.5315,0.006564608
0.53175,0.006516791
0.532,0.006462222
0.53225,0.006379516
0.5325,0.006365317
0.53275,0.006370633
0.533,0.006393904
0.53325,0.006476156
0.5335,0.006516587
0.53375,0.006538977
0.534,0.006535268
0.53425,0.006504691
0.5345,0.006458754
0.53475,0.006413798
0.535,0.006385647
0.53525,0.006410392
0.5355,0.006451989
0.53575,0.006495338
0.536,0.006525878
0.53625,0.006527744
0.5365,0.006502668
0.53675,0.006469632
0.537,0.006440542
0.53725,0.006427822
0.5375,0.006446649
0.53775,0.006472872
0.538,0.006493747
0.53825,0.006487512
0.5385,0.006460796
0.53875,0.006430697
0.539,0.006407881
0.53925,0.006397998
0.5395,0.006411088
0.53975,0.006432337
0.54,0.006457844
0.54025,0.006481997
0.5405,0.006499176
0.54075,0.006508007
0.541,0.006508666
0.54125,0.006487834
0.5415,0.00647183
0.54175,0.006457371
0.542,0.006452548
0.54225,0.006487678
0.5425,0.006520046
0.54275,0.006550173
0.543,0.006571838
0.54325,0.006571928
0.5435,0.006551546
0.54375,0.00652593
0.544,0.006503075
0.54425,0.006484375
0.5445,0.006486939
0.54475,0.006496769
0.545,0.006511219
0.54525,0.006545061
0.5455,0.00655292
0.54575,0.006547685
0.546,0.006527773
0.54625,0.006499223
0.5465,0.006445853
0.54675,0.006437652
0.547,0.006445616
0.54725,0.006464202
0.5475,0.006481647
0.54775,0.006489369
0.548,0.006484347
0.54825,0.006455987
0.5485,0.006449994
0.54875,0.006455599
0.549,0.006470906
0.54925,0.006501559
0.5495,0.006508007
0.54975,0.006507969
0.55,0.006503781
0.55025,0.006497205
0.5505,0.006498352
0.55075,0.006503416
0.551,0.006508476
0.55125,0.006507405
0.5515,0.006494926
0.55175,0.006475947
0.552,0.006458427
0.55225,0.006457034
0.5525,0.006473616
0.55275,0.006491591
0.553,0.006503492
0.55325,0.006504814
0.5535,0.006497357
0.55375,0.006485318
0.554,0.006472508
0.55425,0.006452358
0.5545,0.006442627
0.55475,0.006432924
0.555,0.006423965
0.55525,0.006416854
0.5555,0.006424477
0.55575,0.006441566
0.556,0.006464079
0.55625,0.006508324
0.5565,0.006522215
0.55675,0.006523755
0.557,0.006511745
0.55725,0.006467798
0.5575,0.006448947
0.55775,0.006438268
0.558,0.006437577
0.55825,0.006453642
0.5585,0.006462563
0.55875,0.006465756
0.559,0.006463108
0.55925,0.006457281
0.5595,0.006453391
0.55975,0.006455073
0.56,0.006461066
0.56025,0.006489208
0.5605,0.006526209
0.56075,0.006594081
0.561,0.00669201
0.56125,0.006915397
0.5615,0.006994374
0.56175,0.007025794
0.562,0.007005503
0.56225,0.006844445
0.5625,0.006740633
0.56275,0.006651938
0.563,0.006602543
0.56325,0.006637446
0.5635,0.006690778
0.56375,0.006735568
0.564,0.006749411
0.56425,0.006659168
0.5645,0.006581948
0.56475,0.006512299
0.565,0.006464596
0.56525,0.006447308
0.5655,0.006468381
0.56575,0.006481594
0.566,0.006481694
0.56625,0.006465932
0.5665,0.006437941
0.56675,0.006408904
0.567,0.006387499
0.56725,0.006368468
0.5675,0.00636337
0.56775,0.006359281
0.568,0.006359698
0.56825,0.006386481
0.5685,0.006410008
0.56875,0.006432682
0.569,0.006446123
0.56925,0.006431143
0.5695,0.006414499
0.56975,0.006404754
0.57,0.006406815
0.57025,0.006442802
0.5705,0.006467083
0.57075,0.006488876
0.571,0.006503099
0.57125,0.006510888
0.5715,0.00650795
0.57175,0.006498461
0.572,0.006484148
0.57225,0.006471029
0.5725,0.006465605
0.57275,0.006472645
0.573,0.006479775
0.57325,0.006480495
0.5735,0.006473744
0.57375,0.006466334
0.574,0.006465567
0.57425,0.006492993
0.5745,0.006510172
0.57475,0.006520657
0.575,0.006521694
0.57525,0.006505989
0.5755,0.00650416
0.57575,0.006511906
0.576,0.006524816
0.57625,0.006526721
0.5765,0.006503677
0.57675,0.006468291
0.577,0.006429106
0.57725,0.00637592
0.5775,0.006366606
0.57775,0.006368411
0.578,0.006378948
0.57825,0.006397789
0.5785,0.00642361
0.57875,0.006455831
0.579,0.006486811
0.57925,0.006525248
0.5795,0.00652565
0.57975,0.006513209
0.58,0.006490653
0.58025,0.006447564
0.5805,0.006442248
0.58075,0.00645477
0.581,0.006477638
0.58125,0.006520462
0.5815,0.006525195
0.58175,0.006516123
0.582,0.006499375
0.58225,0.006465112
0.5825,0.006452467
0.58275,0.006443143
0.583,0.006438676
0.58325,0.006450667
0.5835,0.006465065
0.58375,0.006479832
0.584,0.006491605
0.58425,0.006498181
0.5845,0.006499242
0.58475,0.006498015
0.585,0.006494524
0.58525,0.006485749
0.5855,0.006480415
0.58575,0.006476511
0.586,0.006476625
0.58625,0.006493998
0.5865,0.006504056
0.58675,0.00650841
0.587,0.006505723
0.58725,0.006494296
0.5875,0.006495609
0.58775,0.0065028
0.588,0.006514981
0.58825,0.006539394
0.5885,0.006547093
0.58875,0.006547965
0.589,0.006543255
0.58925,0.006519216
0.5895,0.006503791
0.58975,0.006491311
0.59,0.0064861
0.59025,0.006487815
0.5905,0.00649261
0.59075,0.00649666
0.591,0.006496362
0.59125,0.006495969
0.5915,0.006495438
0.59175,0.006494822
0.592,0.006492638
0.59225,0.006484788
0.5925,0.006482286
0.59275,0.006483186
0.593,0.006488483
0.59325,0.006513801
0.5935,0.006531795
0.59375,0.006544303
0.594,0.006545312
0.59425,0.006516625
0.5945,0.006498404
0.59475,0.006485366
0.595,0.006480358
0.59525,0.006483058
0.5955,0.006483788
0.59575,0.00648158
0.596,0.006476497
0.59625,0.006465946
0.5965,0.00646371
0.59675,0.006465363
0.597,0.006470702
0.59725,0.006479472
0.5975,0.006490279
0.59775,0.006501052
0.598,0.006509646
0.59825,0.006504994
0.5985,0.006488805
0.59875,0.006465861
0.599,0.00644293
0.59925,0.006430622
0.5995,0.006448999
0.59975,0.006476686
0.6,0.006504236
0.60025,0.006525802
0.6005,0.006512399
0.60075,0.006489303
0.601,0.006464089
0.60125,0.006439348
0.6015,0.006446403
0.60175,0.006462378
0.602,0.006478771
0.60225,0.006489871
0.6025,0.006486706
0.60275,0.006487412
0.603,0.006498769
0.60325,0.006518065
0.6035,0.006536566
0.60375,0.006545501
0.604,0.006539669
0.60425,0.00649107
0.6045,0.006460152
0.60475,0.006435947
0.605,0.006423667
0.60525,0.006443646
0.6055,0.006468229
0.60575,0.006489772
0.606,0.006499678
0.60625,0.006479955
0.6065,0.006461227
0.60675,0.006448037
0.607,0.006445361
0.60725,0.006463198
0.6075,0.006475578
0.60775,0.006486015
0.608,0.00649287
0.60825,0.006501876
0.6085,0.006509296
0.60875,0.006514986
0.609,0.006513977
0.60925,0.006501763
0.6095,0.006466652
0.60975,0.006459081
0.61,0.006464648
0.61025,0.006481443
0.6105,0.00650344
0.61075,0.006524011
0.611,0.006536367
0.61125,0.006531951
0.6115,0.006516961
0.61175,0.006498536
0.612,0.006484262
0.61225,0.006485707
0.6125,0.006503539
0.61275,0.006529791
0.613,0.006555659
0.61325,0.006570819
0.6135,0.006552958
0.61375,0.006524148
0.614,0.006494367
0.61425,0.006467467
0.6145,0.006475416
0.61475,0.006490255
0.615,0.006506837
0.61525,0.006535784
0.6155,0.006547017
0.61575,0.006558615
0.616,0.006569768
0.61625,0.006573847
0.6165,0.006565731
0.61675,0.006544265
0.617,0.00651481
0.61725,0.006475615
0.6175,0.0064778
0.61775,0.006491605
0.618,0.0065121
0.61825,0.006548794
0.6185,0.006558501
0.61875,0.006559117
0.619,0.006550689
0.61925,0.006522812
0.6195,0.006510556
0.61975,0.006500711
0.62,0.006489862
0.62025,0.006470466
0.6205,0.006469011
0.62075,0.006477264
0.621,0.006493244
0.62125,0.006532022
0.6215,0.006542512
0.62175,0.006541806
0.622,0.00652782
0.62225,0.006503615
0.6225,0.006476042
0.62275,0.00645359
0.623,0.006447052
0.62325,0.006494088
0.6235,0.00653423
0.62375,0.006568408
0.624,0.006584246
0.62425,0.00653739
0.6245,0.006487138
0.62475,0.006441239
0.625,0.00641701
0.62525,0.00644068
0.6255,0.00647074
0.62575,0.006496286
0.626,0.006510381
0.62625,0.00649351
0.6265,0.00646949
0.62675,0.006446332
0.627,0.006432829
0.62725,0.006439765
0.6275,0.006451894
0.62775,0.006465482
0.628,0.006476198
0.62825,0.00647978
0.6285,0.006476776
0.62875,0.006470205
0.629,0.006466884
0.62925,0.006481343
0.6295,0.006497319
0.62975,0.006514796
0.63,0.006526356
0.63025,0.006526242
0.6305,0.006519202
0.63075,0.00651201
0.631,0.006505776
0.63125,0.00651383
0.6315,0.006522538
0.63175,0.006529128
0.632,0.006532003
0.63225,0.006532491
0.6325,0.006528223
0.63275,0.0065188
0.633,0.006507439
0.63325,0.006501332
0.6335,0.006512048
0.63375,0.006525764
0.634,0.006532804
0.63425,0.006528521
0.6345,0.006515621
0.63475,0.006498915
0.635,0.00650525
0.63525,0.00651978
0.6355,0.00653577
0.63575,0.006546648
0.636,0.006549476
0.63625,0.006534268
0.6365,0.006523116
0.63675,0.006514924
0.637,0.006506718
0.63725,0.006484987
0.6375,0.006476421
0.63775,0.006472962
0.638,0.006476658
0.63825,0.006504743
0.6385,0.006522021
0.63875,0.006536282
0.639,0.006542791
0.63925,0.006529071
0.6395,0.006513209
0.63975,0.006495869
0.64,0.006479614
0.64025,0.006469528
0.6405,0.006478515
0.64075,0.006491221
0.641,0.006501104
0.64125,0.006503985
0.6415,0.006501085
0.64175,0.00649595
0.642,0.006494713
0.64225,0.006517762
0.6425,0.006542185
0.64275,0.006567749
0.643,0.006588107
0.64325,0.006588609
0.6435,0.006566802
0.64375,0.006536755
0.644,0.006508727
0.64425,0.006500081
0.6445,0.006523305
0.64475,0.006554451
0.645,0.006584549
0.64525,0.006597621
0.6455,0.00656973
0.64575,0.006524286
0.646,0.006475838
0.64625,0.006422596
0.6465,0.006433928
0.64675,0.006466704
0.647,0.00650605
0.64725,0.006536912
0.6475,0.006552044
0.64775,0.006552068
0.648,0.006545103
0.64825,0.006527403
0.6485,0.006518937
0.64875,0.006513574
0.649,0.006515455
0.64925,0.006539508
0.6495,0.006550741
0.64975,0.006553958
0.65,0.006549855
0.65025,0.006545222
0.6505,0.006546828
0.65075,0.006547169
0.651,0.006542952
0.65125,0.006511087
0.6515,0.006486138
0.65175,0.006460332
0.652,0.006441272
0.65225,0.006446033
0.6525,0.006471536
0.65275,0.006504397
0.653,0.006535078
0.65325,0.0065503
0.6535,0.00652954
0.65375,0.006497954
0.654,0.006468409
0.65425,0.00649196
0.6545,0.00656359
0.65475,0.006663451
0.655,0.006768159
0.65525,0.006855754
0.6555,0.006909707
0.65575,0.006924573
0.656,0.006903671
0.65625,0.006799375
0.6565,0.006742134
0.65675,0.006696638
0.657,0.006672154
0.65725,0.006696548
0.6575,0.006728466
0.65775,0.006753315
0.658,0.006756608
0.65825,0.006675575
0.6585,0.006606508
0.65875,0.006539631
0.659,0.006489393
0.65925,0.006471318
0.6595,0.006497745
0.65975,0.006532487
0.66,0.006561614
0.66025,0.006573894
0.6605,0.006565011
0.66075,0.006533927
0.661,0.006488535
0.66125,0.006396084
0.6615,0.006371377
0.66175,0.006368108
0.662,0.006383188
0.66225,0.006443456
0.6625,0.006477444
0.66275,0.006506756
0.663,0.006525522
0.66325,0.006523547
0.6635,0.006504544
0.66375,0.006482168
0.664,0.006466566
0.66425,0.006494206
0.6645,0.006536395
0.66475,0.006582005
0.665,0.006616368
0.66525,0.006627127
0.6655,0.006606783
0.66575,0.006580044
0.666,0.006556
0.66625,0.006540958
0.6665,0.006535647
0.66675,0.006536073
0.667,0.006538802
0.66725,0.006549362
0.6675,0.006556644
0.66775,0.006562742
0.668,0.006565177
0.66825,0.006556332
0.6685,0.006548467
0.66875,0.006541237
0.669,0.00653388
0.66925,0.00651708
0.6695,0.006508879
0.66975,0.006504094
0.67,0.00650344
0.67025,0.006503857
0.6705,0.006501445
0.67075,0.006499437
0.671,0.006502364
0.67125,0.006527721
0.6715,0.006541512
0.67175,0.006551471
0.672,0.006556242
0.67225,0.006556668
0.6725,0.006543687
0.67275,0.006531596
0.673,0.006518913
0.67325,0.006507211
0.6735,0.006496172
0.67375,0.006489696
0.674,0.006489104
0.67425,0.006497196
0.6745,0.006503217
0.67475,0.006509793
0.675,0.006515407
0.67525,0.006511224
0.6755,0.006503023
0.67575,0.006497167
0.676,0.006497447
0.67625,0.006510063
0.6765,0.006513673
0.67675,0.006512375
0.677,0.006507467
0.67725,0.006507543
0.6775,0.006518506
0.67775,0.006535291
0.678,0.006553048
0.67825,0.006564949
0.6785,0.006553124
0.67875,0.00653442
0.679,0.006515606
0.67925,0.006500853
0.6795,0.006491288
0.67975,0.006487223
0.68,0.006491714
0.68025,0.006533122
0.6805,0.006566778
0.68075,0.006600676
0.681,0.006624805
0.68125,0.006618447
0.6815,0.006590912
0.68175,0.006557848
0.682,0.006528393
0.68225,0.00650064
0.6825,0.00650489
0.68275,0.006517345
0.683,0.006532591
0.68325,0.006548784
0.6835,0.006547813
0.68375,0.006545037
0.684,0.006546738
0.68425,0.006576528
0.6845,0.006598004
0.68475,0.0066146
0.685,0.006617249
0.68525,0.00660557
0.6855,0.006584028
0.68575,0.006562287
0.686,0.006547965
0.68625,0.00655113
0.6865,0.006561301
0.68675,0.006567839
0.687,0.006565707
0.68725,0.006526546
0.6875,0.006496826
0.68775,0.006470323
0.688,0.006453803
0.68825,0.006485385
0.6885,0.006518425
0.68875,0.006553773
0.689,0.006582408
0.68925,0.00659727
0.6895,0.006598
0.68975,0.0065886
0.69,0.006576775
0.69025,0.00656991
0.6905,0.006578869
0.69075,0.00658986
0.691,0.006594858
0.69125,0.006589562
0.6915,0.006573411
0.69175,0.006548434
0.692,0.006521832
0.69225,0.006492804
0.6925,0.006497764
0.69275,0.006511925
0.693,0.006529113
0.69325,0.006572274
0.6935,0.006617263
0.69375,0.006697022
0.694,0.00682431
0.69425,0.007222233
0.6945,0.007467414
0.69475,0.007714195
0.695,0.007942021
0.69525,0.0082864
0.6955,0.008394575
0.69575,0.008472809
0.696,0.008541586
0.69625,0.008656963
0.6965,0.008654731
0.69675,0.008583112
0.697,0.008452508
0.69725,0.008120978
0.6975,0.007965056
0.69775,0.007829947
0.698,0.00770905
0.69825,0.007442081
0.6985,0.007261746
0.69875,0.007039557
0.699,0.006779534
0.69925,0.006504411
0.6995,0.0062467
0.69975,0.006038573
0.7,0.005888648
0.70025,0.005711231
0.7005,0.005647239
0.70075,0.005581537
0.701,0.005498613
0.70125,0.00525863
0.7015,0.005134247
0.70175,0.005041667
0.702,0.004995693
0.70225,0.005038522
0.7025,0.005105494
0.70275,0.005181292
0.703,0.005243721
0.70325,0.00528266
0.7035,0.005270555
0.70375,0.005265282
0.704,0.005288677
0.70425,0.005349527
0.7045,0.005442652
0.70475,0.005548127
0.705,0.005656809
0.70525,0.005905031
0.7055,0.006071713
0.70575,0.006276713
0.706,0.00651365
0.70625,0.007009047
0.7065,0.007218869
0.70675,0.00738159
0.707,0.007505519
0.70725,0.007709472
0.7075,0.007814672
0.70775,0.007925913
0.708,0.008045161
0.70825,0.008299509
0.7085,0.008402236
0.70875,0.008465361
0.709,0.008478248
0.70925,0.00830951
0.7095,0.008120452
0.70975,0.007879171
0.71,0.007615201
0.71025,0.007359579
0.7105,0.006938981
0.71075,0.006773559
0.711,0.006624161
0.71125,0.006486564
0.7115,0.006358424
0.71175,0.006245724
0.712,0.006151377
0.71225,0.006047205
0.7125,0.006051815
0.71275,0.006080146
0.713,0.006102266
0.71325,0.005981621
0.7135,0.005819706
0.71375,0.00562112
0.714,0.005425018
0.71425,0.005164018
0.7145,0.005122474
0.71475,0.005126676
0.715,0.005145845
0.71525,0.005133816
0.7155,0.005095251
0.71575,0.005048883
0.716,0.005000397
0.71625,0.004915853
0.7165,0.004895173
0.71675,0.004904701
0.717,0.004949221
0.71725,0.005027781
0.7175,0.005123189
0.71775,0.00521014
0.718,0.005267925
0.71825,0.005260682
0.7185,0.005213234
0.71875,0.005160607
0.719,0.00512489
0.71925,0.005167344
0.7195,0.005244843
0.71975,0.005337475
0.72,0.005422043
0.72025,0.005498684
0.7205,0.005488195
0.72075,0.005461238
0.721,0.005431167
0.72125,0.005404821
0.7215,0.005410715
0.72175,0.005421076
0.722,0.005428273
0.72225,0.005428874
0.7225,0.005427666
0.72275,0.005434275
0.723,0.005446911
0.72325,0.005466141
0.7235,0.005483443
0.72375,0.005490535
0.724,0.005482775
0.72425,0.005436909
0.7245,0.005411075
0.72475,0.00538967
0.725,0.005373709
0.72525,0.005377968
0.7255,0.005405655
0.72575,0.005449104
0.726,0.005490346
0.72625,0.005503005
0.7265,0.005466823
0.72675,0.005417343
0.727,0.005367114
0.72725,0.005311275
0.7275,0.005311223
0.72775,0.005326081
0.728,0.00535012
0.72825,0.005412809
0.7285,0.005447479
0.72875,0.005474394
0.729,0.005485035
0.72925,0.005473688
0.7295,0.005445722
0.72975,0.005410881
0.73,0.005376338
0.73025,0.005338138
0.7305,0.005340298
0.73075,0.005353029
0.731,0.005373903
0.73125,0.005416585
0.7315,0.005429192
0.73175,0.005430831
0.732,0.005421934
0.73225,0.00539879
0.7325,0.005402348
0.73275,0.005417428
0.733,0.005442164
0.73325,0.005481377
0.7335,0.005483358
0.73375,0.00547528
0.734,0.005465691
0.73425,0.00545143
0.7345,0.005450346
0.73475,0.005453264
0.735,0.00545965
0.73525,0.005465288
0.7355,0.005472935
0.73575,0.005480094
0.736,0.005490351
0.73625,0.005512831
0.7365,0.005522382
0.73675,0.005526078
0.737,0.005530143
0.73725,0.005530351
0.7375,0.005524888
0.73775,0.005510765
0.738,0.005489858
0.73825,0.005444575
0.7385,0.005431982
0.73875,0.005428069
0.739,0.005432248
0.73925,0.005459954
0.7395,0.005475877
0.73975,0.005485798
0.74,0.005483083
0.74025,0.005450445
0.7405,0.00543067
0.74075,0.005419361
0.741,0.005417153
0.74125,0.005428538
0.7415,0.005429287
0.74175,0.005423909
0.742,0.005410672
0.74225,0.005397733
0.7425,0.005393455
0.74275,0.005409976
0.743,0.00544693
0.74325,0.005543607
0.7435,0.00557959
0.74375,0.005605031
0.744,0.005630094
0.74425,0.00572147
0.7445,0.005772381
0.74475,0.005807146
0.745,0.00581655
0.74525,0.005766639
0.7455,0.005720512
0.74575,0.005671544
0.746,0.005625811
0.74625,0.005568404
0.7465,0.005560919
0.74675,0.005560075
0.747,0.00555655
0.74725,0.005535539
0.7475,0.005528788
0.74775,0.005522377
0.748,0.005513305
0.74825,0.005494752
0.7485,0.005466534
0.74875,0.005433494
0.749,0.005396772
0.74925,0.005329596
0.7495,0.005309252
0.74975,0.005307812
0.75,0.00532808
0.75025,0.005408194
0.7505,0.005444916
0.75075,0.005467089
0.751,0.005470116
0.75125,0.005429879
0.7515,0.005403476
0.75175,0.005383843
0.752,0.005380649
0.75225,0.005431575
0.7525,0.005476654
0.75275,0.005520094
0.753,0.005557195
0.75325,0.005585446
0.7535,0.005577178
0.75375,0.005564846
0.754,0.005556986
0.75425,0.005566035
0.7545,0.005582617
0.75475,0.005609992
0.755,0.005645212
0.75525,0.005708924
0.7555,0.005720863
0.75575,0.005715969
0.756,0.005693176
0.75625,0.005660993
0.7565,0.005625091
0.75675,0.005591396
0.757,0.00556811
0.75725,0.005574914
0.7575,0.005602956
0.75775,0.005630492
0.758,0.005643354
0.75825,0.005601667
0.7585,0.005554508
0.75875,0.005499523
0.759,0.005450142
0.75925,0.005405934
0.7595,0.0054145
0.75975,0.005436019
0.76,0.005457774
0.76025,0.005469538
0.7605,0.005460148
0.76075,0.005448133
0.761,0.005433683
0.76125,0.005402225
0.7615,0.005387836
0.76175,0.005380782
0.762,0.005379721
0.76225,0.005384984
0.7625,0.005393162
0.76275,0.005401628
0.763,0.005410478
0.76325,0.005414249
0.7635,0.005407247
0.76375,0.005400505
0.764,0.005399524
0.76425,0.005437762
0.7645,0.005462976
0.76475,0.005476427
0.765,0.005468211
0.76525,0.005403755
0.7655,0.005374831
0.76575,0.005372216
0.766,0.005393697
0.76625,0.005475181
0.7665,0.005507335
0.76675,0.0055235
0.767,0.005517517
0.76725,0.005495396
0.7675,0.005460868
0.76775,0.0054247
0.768,0.00539653
0.76825,0.00539536
0.7685,0.005415249
0.76875,0.005437596
0.769,0.005452236
0.76925,0.005449322
0.7695,0.005439956
0.76975,0.005435791
0.77,0.00543473
0.77025,0.005430016
0.7705,0.005416158
0.77075,0.005398037
0.771,0.005382023
0.77125,0.00538867
0.7715,0.005415348
0.77175,0.005448261
0.772,0.00547654
0.77225,0.005477374
0.7725,0.005444409
0.77275,0.00540005
0.773,0.005364058
0.77325,0.005348561
0.7735,0.005361599
0.77375,0.005395066
0.774,0.005437544
0.77425,0.005494349
0.7745,0.00549334
0.77475,0.005474446
0.775,0.005450189
0.77525,0.005421171
0.7755,0.005426709
0.77575,0.005439217
0.776,0.00545551
0.77625,0.005467581
0.7765,0.005455983
0.77675,0.005434138
0.777,0.005410213
0.77725,0.005378944
0.7775,0.005385354
0.77775,0.005406432
0.778,0.00543871
0.77825,0.005501821
0.7785,0.00552008
0.77875,0.005528863
0.779,0.005523894
0.77925,0.005506113
0.7795,0.005478919
0.77975,0.005426055
0.78,0.005418371
0.78025,0.005427932
0.7805,0.005450568
0.78075,0.005483282
0.781,0.005517479
0.78125,0.005545554
0.7815,0.005535292
0.78175,0.005524187
0.782,0.005535581
0.78225,0.005669454
0.7825,0.005770429
0.78275,0.005860317
0.783,0.00591644
0.78325,0.005892813
0.7835,0.005823718
0.78375,0.005739203
0.784,0.005666271
0.78425,0.005611697
0.7845,0.005628052
0.78475,0.00565121
0.785,0.005665773
0.78525,0.005637987
0.7855,0.005599436
0.78575,0.00555114
0.786,0.005500328
0.78625,0.005457523
0.7865,0.005431011
0.78675,0.00541776
0.787,0.005413529
0.78725,0.005417163
0.7875,0.005426695
0.78775,0.005435085
0.788,0.005436421
0.78825,0.005387751
0.7885,0.005339593
0.78875,0.005288421
0.789,0.005249235
0.78925,0.005258587
0.7895,0.005309309
0.78975,0.005374036
0.79,0.005430191
0.79025,0.005477516
0.7905,0.005465468
0.79075,0.005441159
0.791,0.005412288
0.79125,0.005386543
0.7915,0.005392787
0.79175,0.005407768
0.792,0.005428301
0.79225,0.005452061
0.7925,0.005476531
0.79275,0.005502654
0.793,0.00552648
0.79325,0.005548615
0.7935,0.00553876
0.79375,0.005516536
0.794,0.005485087
0.79425,0.005427463
0.7945,0.005407801
0.79475,0.005396483
0.795,0.005394716
0.79525,0.005425577
0.7955,0.005451269
0.79575,0.005477682
0.796,0.005499362
0.79625,0.00551853
0.7965,0.005521293
0.79675,0.005519525
0.797,0.005516294
0.79725,0.005506137
0.7975,0.005501906
0.79775,0.005493857
0.798,0.005484466
0.79825,0.005475569
0.7985,0.005472821
0.79875,0.005478412
0.799,0.005492923
0.79925,0.005538609
0.7995,0.005555579
0.79975,0.005557825
0.8,0.005544161
0.80025,0.005493122
0.8005,0.005480984
0.80075,0.005483092
0.801,0.005497945
0.80125,0.005528863
0.8015,0.005534316
0.80175,0.005524107
0.802,0.005499281
0.80225,0.005433569
0.8025,0.00541387
0.80275,0.005406034
0.803,0.005406276
0.80325,0.00541857
0.8035,0.00543057
0.80375,0.005447749
0.804,0.005465127
0.80425,0.005494553
0.8045,0.005504459
0.80475,0.005514371
0.805,0.005522496
0.80525,0.005528674
0.8055,0.005529394
0.80575,0.005527338
0.806,0.005523372
0.80625,0.005507487
0.8065,0.005496557
0.80675,0.005484192
0.807,0.005469941
0.80725,0.005439401
0.8075,0.005429078
0.80775,0.005430338
0.808,0.005439311
0.80825,0.005465146
0.8085,0.005474697
0.80875,0.005481714
0.809,0.005484452
0.80925,0.005479397
0.8095,0.005467624
0.80975,0.005450573
0.81,0.005432186
0.81025,0.00542425
0.8105,0.00543798
0.81075,0.005457135
0.811,0.005479539
0.81125,0.00550057
0.8115,0.005510438
0.81175,0.005510263
0.812,0.005497604
0.81225,0.005454989
0.8125,0.005440624
0.81275,0.005444765
0.813,0.005465464
0.81325,0.005534279
0.8135,0.00555611
0.81375,0.005557109
0.814,0.005533558
0.81425,0.005442467
0.8145,0.005393223
0.81475,0.00535481
0.815,0.005334481
0.81525,0.005360481
0.8155,0.005402481
0.81575,0.005450184
0.816,0.005488422
0.81625,0.005503801
0.8165,0.005484343
0.81675,0.005458409
0.817,0.005436459
0.81725,0.005426316
0.8175,0.005432925
0.81775,0.005441813
0.818,0.005456225
0.81825,0.005475337
0.8185,0.005495377
0.81875,0.005511808
0.819,0.005523567
0.81925,0.005534492
0.8195,0.005533468
0.81975,0.005527072
0.82,0.005516673
0.82025,0.005505582
0.8205,0.005507525
0.82075,0.005508861
0.821,0.005505554
0.82125,0.005470528
0.8215,0.005448578
0.82175,0.005436909
0.822,0.005447114
0.82225,0.005525509
0.8225,0.005572682
0.82275,0.005601089
0.823,0.005601516
0.82325,0.005518583
0.8235,0.00546119
0.82375,0.005413411
0.824,0.005389191
0.82425,0.005393147
0.8245,0.005424383
0.82475,0.00547312
0.825,0.005527944
0.82525,0.005592107
0.8255,0.005587653
0.82575,0.005562326
0.826,0.005527129
0.82625,0.005486954
0.8265,0.005496088
0.82675,0.005516976
0.827,0.005538694
0.82725,0.005555442
0.8275,0.005544891
0.82775,0.005524789
0.828,0.005498452
0.82825,0.005457021
0.8285,0.005444589
0.82875,0.005438392
0.829,0.0054351
0.82925,0.005442723
0.8295,0.005454695
0.82975,0.005473195
0.83,0.005497263
0.83025,0.005524509
0.8305,0.005543375
0.83075,0.005550458
0.831,0.005543185
0.83125,0.005503574
0.8315,0.005481979
0.83175,0.005468316
0.832,0.005462649
0.83225,0.005474977
0.8325,0.005487333
0.83275,0.0055012
0.833,0.005512182
0.83325,0.005519577
0.8335,0.005519791
0.83375,0.005518213
0.834,0.005515309
0.83425,0.005497509
0.8345,0.005482363
0.83475,0.005470476
0.835,0.005472722
0.83525,0.005517303
0.8355,0.005546151
0.83575,0.005565296
0.836,0.005568238
0.83625,0.005552822
0.8365,0.005527366
0.83675,0.005499125
0.837,0.005480368
0.83725,0.005479497
0.8375,0.005490867
0.83775,0.005503029
0.838,0.005513291
0.83825,0.005518616
0.8385,0.005516408
0.83875,0.005511675
0.839,0.005507496
0.83925,0.005489034
0.8395,0.005474825
0.83975,0.005464047
0.84,0.005461816
0.84025,0.005471784
0.8405,0.005480212
0.84075,0.005493236
0.841,0.005508809
0.84125,0.005534264
0.8415,0.00552884
0.84175,0.005509036
0.842,0.005483481
0.84225,0.005466999
0.8425,0.005472726
0.84275,0.005496135
0.843,0.005538362
0.84325,0.005607656
0.8435,0.005704006
0.84375,0.005817678
0.844,0.005924049
0.84425,0.006029675
0.8445,0.005998099
0.84475,0.005915781
0.845,0.005812206
0.84525,0.005664859
0.8455,0.005647519
0.84575,0.005660983
0.846,0.005698008
0.84625,0.005774323
0.8465,0.005781932
0.84675,0.00575822
0.847,0.00571252
0.84725,0.005584489
0.8475,0.005525845
0.84775,0.005479918
0.848,0.005455173
0.84825,0.005457182
0.8485,0.005471357
0.84875,0.005483784
0.849,0.005489593
0.84925,0.005484125
0.8495,0.005470334
0.84975,0.005451492
0.85,0.00543274
0.85025,0.005410014
0.8505,0.005410634
0.85075,0.005420299
0.851,0.005439255
0.85125,0.005474925
0.8515,0.005482387
0.85175,0.005483443
0.852,0.00548449
0.85225,0.005481681
0.8525,0.00548277
0.85275,0.00549126
0.853,0.005510694
0.85325,0.005565225
0.8535,0.005581897
0.85375,0.005580495
0.854,0.005563373
0.85425,0.005523742
0.8545,0.005512736
0.85475,0.005512244
0.855,0.005521368
0.85525,0.005540826
0.8555,0.005563392
0.85575,0.00558049
0.856,0.005587435
0.85625,0.005578775
0.8565,0.005574018
0.85675,0.005569968
0.857,0.005566372
0.85725,0.005539945
0.8575,0.005519653
0.85775,0.005503825
0.858,0.005498158
0.85825,0.005511865
0.8585,0.005518137
0.85875,0.005510348
0.859,0.005484935
0.85925,0.005414462
0.8595,0.005389656
0.85975,0.005377665
0.86,0.00537928
0.86025,0.005419285
0.8605,0.005444134
0.86075,0.005463189
0.861,0.005469045
0.86125,0.005451923
0.8615,0.005439558
0.86175,0.005433224
0.862,0.005435507
0.86225,0.005447887
0.8625,0.005464862
0.86275,0.005478047
0.863,0.005485845
0.86325,0.005474882
0.8635,0.005461593
0.86375,0.005451156
0.864,0.005449516
0.86425,0.005502455
0.8645,0.005552012
0.86475,0.005603112
0.865,0.005638929
0.86525,0.005634618
0.8655,0.005601848
0.86575,0.005566874
0.866,0.00553805
0.86625,0.005522491
0.8665,0.005534331
0.86675,0.005553926
0.867,0.005571342
0.86725,0.005583233
0.8675,0.005572024
0.86775,0.005554897
0.868,0.00554165
0.86825,0.005541432
0.8685,0.005550695
0.86875,0.005567836
0.869,0.005583584
0.86925,0.005586298
0.8695,0.005571128
0.86975,0.005552272
0.87,0.005532208
0.87025,0.005505289
0.8705,0.005499523
0.87075,0.005500669
0.871,0.005505317
0.87125,0.00552495
0.8715,0.005540362
0.87175,0.005557308
0.872,0.005572843
0.87225,0.005578543
0.8725,0.005564647
0.87275,0.00554419
0.873,0.005529043
0.87325,0.005539135
0.8735,0.005569285
0.87375,0.005600559
0.874,0.005626266
0.87425,0.005633296
0.8745,0.005621457
0.87475,0.005593855
0.875,0.005552301
0.87525,0.005464933
0.8755,0.005441685
0.87575,0.005439856
0.876,0.005457623
0.87625,0.005505838
0.8765,0.005511315
0.87675,0.005497168
0.877,0.005473011
0.87725,0.005436706
0.8775,0.00544295
0.87775,0.005462086
0.878,0.005485168
0.87825,0.005518241
0.8785,0.00552107
0.87875,0.005514783
0.879,0.00550373
0.87925,0.005500357
0.8795,0.005505985
0.87975,0.005510893
0.88,0.005507638
0.88025,0.005497547
0.8805,0.005483235
0.88075,0.005469822
0.881,0.005473101
0.88125,0.005486755
0.8815,0.005503289
0.88175,0.005522761
0.882,0.005545175
0.88225,0.005592633
0.8825,0.005609153
0.88275,0.00561146
0.883,0.005597238
0.88325,0.005545914
0.8835,0.005520132
0.88375,0.005502967
0.884,0.005495988
0.88425,0.00552215
0.8845,0.005546848
0.88475,0.005570939
0.885,0.005581589
0.88525,0.005547478
0.8855,0.005509808
0.88575,0.005472025
0.886,0.005445546
0.88625,0.005451535
0.8865,0.005474299
0.88675,0.005501318
0.887,0.005528404
0.88725,0.00555186
0.8875,0.005567438
0.88775,0.00557714
0.888,0.005576776
0.88825,0.0055432
0.8885,0.005541257
0.88875,0.005545104
0.889,0.005554949
0.88925,0.005564647
0.8895,0.005575008
0.88975,0.005579732
0.89,0.00557452
0.89025,0.005528702
0.8905,0.005499433
0.89075,0.005475128
0.891,0.00546281
0.89125,0.005474498
0.8915,0.005495017
0.89175,0.005520748
0.892,0.005548274
0.89225,0.005571285
0.8925,0.005560644
0.89275,0.005542702
0.893,0.005525637
0.89325,0.005518213
0.8935,0.005524713
0.89375,0.005540575
0.894,0.005559516
0.89425,0.005566637
0.8945,0.005548714
0.89475,0.005523969
0.895,0.005502678
0.89525,0.005496619
0.8955,0.005507866
0.89575,0.005519791
0.896,0.00552649
0.89625,0.005527594
0.8965,0.00552531
0.89675,0.005523368
0.897,0.005521686
0.89725,0.005533824
0.8975,0.005548804
0.89775,0.005565135
0.898,0.005577538
0.89825,0.005577311
0.8985,0.005564908
0.89875,0.005549624
0.899,0.005537685
0.89925,0.00553101
0.8995,0.00552586
0.89975,0.005519047
0.9,0.00550798
0.90025,0.005488934
0.9005,0.005494548
0.90075,0.005514404
0.901,0.005545459
0.90125,0.005602335
0.9015,0.005611778
0.90175,0.005599142
0.902,0.005567305
0.90225,0.005481671
0.9025,0.005452568
0.90275,0.005443054
0.903,0.005459243
0.90325,0.005541219
0.9035,0.005587976
0.90375,0.005619401
0.904,0.005623262
0.90425,0.005549032
0.9045,0.00549696
0.90475,0.005460337
0.905,0.005449156
0.90525,0.005505881
0.9055,0.005548856
0.90575,0.005584683
0.906,0.005599611
0.90625,0.005594111
0.9065,0.005572805
0.90675,0.00554898
0.907,0.005534923
0.90725,0.005547402
0.9075,0.005565273
0.90775,0.005586791
0.908,0.005600985
0.90825,0.005576103
0.9085,0.005537031
0.90875,0.005497983
0.909,0.00547004
0.90925,0.005482827
0.9095,0.005512585
0.90975,0.00554229
0.91,0.005565765
0.91025,0.005570148
0.9105,0.005540518
0.91075,0.005494681
0.911,0.005444594
0.91125,0.005398638
0.9115,0.005429291
0.91175,0.005488958
0.912,0.005559758
0.91225,0.005639389
0.9125,0.005625039
0.91275,0.005581565
0.913,0.005526528
0.91325,0.005477222
0.9135,0.005450355
0.91375,0.005452061
0.914,0.005468718
0.91425,0.005489351
0.9145,0.005515915
0.91475,0.005542394
0.915,0.005565135
0.91525,0.005579888
0.9155,0.005572265
0.91575,0.005559393
0.916,0.0055497
0.91625,0.005541314
0.9165,0.005540831
0.91675,0.005538538
0.917,0.005535686
0.91725,0.005530863
0.9175,0.005530446
0.91775,0.005535458
0.918,0.005544062
0.91825,0.005557943
0.9185,0.005571147
0.91875,0.005580433
0.919,0.00558301
0.91925,0.00557219
0.9195,0.005568755
0.91975,0.005577302
0.92,0.005595461
0.92025,0.005640327
0.9205,0.005651522
0.92075,0.005649139
0.921,0.005632377
0.92125,0.005588265
0.9215,0.005575838
0.92175,0.005578244
0.922,0.005589477
0.92225,0.005614971
0.9225,0.005618628
0.92275,0.005616558
0.923,0.005612242
0.92325,0.005610404
0.9235,0.005615677
0.92375,0.005621457
0.924,0.005625418
0.92425,0.005612185
0.9245,0.005587199
0.92475,0.005554636
0.925,0.005530749
0.92525,0.005538433
0.9255,0.005594442
0.92575,0.005693825
0.926,0.005815873
0.92625,0.005995194
0.9265,0.006002263
0.92675,0.005951177
0.927,0.005866713
0.92725,0.005690703
0.9275,0.005631984
0.92775,0.00559873
0.928,0.005592997
0.92825,0.005662732
0.9285,0.005720996
0.92875,0.005769372
0.929,0.005785059
0.92925,0.005652967
0.9295,0.00553245
0.92975,0.005426681
0.93,0.005367166
0.93025,0.005415197
0.9305,0.005487759
0.93075,0.005557057
0.931,0.005598351
0.93125,0.005603259
0.9315,0.005573966
0.93175,0.005521316
0.932,0.005461664
0.93225,0.005368336
0.9325,0.00535255
0.93275,0.005361713
0.933,0.005391963
0.93325,0.005493155
0.9335,0.005543849
0.93375,0.005581921
0.934,0.005599251
0.93425,0.005585616
0.9345,0.00556776
0.93475,0.005553675
0.935,0.005547165
0.93525,0.005567229
0.9355,0.005585957
0.93575,0.005601795
0.936,0.005606126
0.93625,0.005584318
0.9365,0.005576468
0.93675,0.005581504
0.937,0.005602677
0.93725,0.005631614
0.9375,0.005655189
0.93775,0.005662836
0.938,0.005652451
0.93825,0.005602615
0.9385,0.005580481
0.93875,0.005571067
0.939,0.005582219
0.93925,0.005644463
0.9395,0.005670776
0.93975,0.005680972
0.94,0.005674675
0.94025,0.005627919
0.9405,0.005601781
0.94075,0.005574786
0.941,0.005549207
0.94125,0.005526897
0.9415,0.005543972
0.94175,0.005574322
0.942,0.005608646
0.94225,0.005638631
0.9425,0.005623413
0.94275,0.005590259
0.943,0.00554464
0.94325,0.005493681
0.9435,0.00544936
0.94375,0.005411321
0.944,0.005422417
0.94425,0.00544368
0.9445,0.005466321
0.94475,0.005482448
0.945,0.005492151
0.94525,0.005483026
0.9455,0.005470433
0.94575,0.005457803
0.946,0.005451516
0.94625,0.005449668
0.9465,0.005446219
0.94675,0.005436692
0.947,0.005422635
0.94725,0.005411473
0.9475,0.005420863
0.94775,0.005436891
0.948,0.005455112
0.94825,0.005497301
0.9485,0.00551203
0.94875,0.005519577
0.949,0.005517948
0.94925,0.005498248
0.9495,0.005482121
0.94975,0.005469145
0.95,0.005466458
0.95025,0.005476706
0.9505,0.005490967
0.95075,0.005501503
0.951,0.005499547
0.95125,0.005457575
0.9515,0.005433508
0.95175,0.005425605
0.952,0.005431651
0.95225,0.005462673
0.9525,0.005476048
0.95275,0.00548703
0.953,0.005494738
0.95325,0.005499637
0.9535,0.005493591
0.95375,0.005481112
0.954,0.00546689
0.95425,0.005446518
0.9545,0.005446887
0.95475,0.005454216
0.955,0.00546733
0.95525,0.005505881
0.9555,0.005523766
0.95575,0.00552938
0.956,0.005517933
0.95625,0.005464748
0.9565,0.005439899
0.95675,0.00542768
0.957,0.005427301
0.95725,0.005437649
0.9575,0.00545442
0.95775,0.005478549
0.958,0.00547908
0.95825,0.00547113
0.9585,0.00545596
0.95875,0.005435275
0.959,0.005417329
0.95925,0.005412169
0.9595,0.005425141
0.95975,0.005440652
0.96,0.005454093
0.96025,0.00546444
0.9605,0.005462356
0.96075,0.005461749
0.961,0.005461711
0.96125,0.005473631
0.9615,0.005484988
0.96175,0.005498556
0.962,0.005512528
0.96225,0.005545815
0.9625,0.00555746
0.96275,0.005560639
0.963,0.005549648
0.96325,0.005525381
0.9635,0.005488479
0.96375,0.005450886
0.964,0.005421394
0.96425,0.005419224
0.9645,0.005447678
0.96475,0.00548584
0.965,0.005519843
0.96525,0.005556299
0.9655,0.005549714
0.96575,0.005530275
0.966,0.005504242
0.96625,0.005473778
0.9665,0.005468202
0.96675,0.005464615
0.967,0.005459541
0.96725,0.005464274
0.9675,0.005478298
0.96775,0.005494387
0.968,0.00550355
0.96825,0.005474252
0.9685,0.005445125
0.96875,0.005423758
0.969,0.005427505
0.96925,0.00545541
0.9695,0.005499011
0.96975,0.005542067
0.97,0.005568873
0.97025,0.005569906
0.9705,0.005557825
0.97075,0.005543337
0.971,0.00552532
0.97125,0.005481302
0.9715,0.005459177
0.97175,0.005440548
0.972,0.005431096
0.97225,0.00545125
0.9725,0.005477336
0.97275,0.005499764
0.973,0.005508998
0.97325,0.005472632
0.9735,0.005436891
0.97375,0.005403698
0.974,0.005388253
0.97425,0.005408924
0.9745,0.005432181
0.97475,0.005453146
0.975,0.005470054
0.97525,0.005481752
0.9755,0.00549335
0.97575,0.005506411
0.976,0.005525002
0.97625,0.005554726
0.9765,0.005551723
0.97675,0.005538623
0.977,0.005526333
0.97725,0.005516233
0.9775,0.005513722
0.97775,0.005509581
0.978,0.005508799
0.97825,0.005511689
0.9785,0.005509491
0.97875,0.005505289
0.979,0.005498727
0.97925,0.005476081
0.9795,0.005463914
0.97975,0.005458826
0.98,0.005464393
0.98025,0.00551087
0.9805,0.005533824
0.98075,0.005543579
0.981,0.005531701
0.98125,0.005459115
0.9815,0.005414765
0.98175,0.005375608
0.982,0.005345534
0.98225,0.005327995
0.9825,0.005326654
0.98275,0.005343416
0.983,0.005378356
0.98325,0.005483244
0.9835,0.005527627
0.98375,0.005552135
0.984,0.005556693
0.98425,0.005509785
0.9845,0.005468766
0.98475,0.005427969
0.985,0.005405276
0.98525,0.005439795
0.9855,0.005482903
0.98575,0.0055207
0.986,0.0055421
0.98625,0.005505862
0.9865,0.005464014
0.98675,0.0054322
0.987,0.005426671
0.98725,0.005496955
0.9875,0.005547103
0.98775,0.005585796
0.988,0.005603364
0.98825,0.00559828
0.9885,0.005578969
0.98875,0.005552722
0.989,0.00552983
0.98925,0.005504824
0.9895,0.005505014
0.98975,0.005512305
0.99,0.005521961
0.99025,0.005521657
0.9905,0.005509908
0.99075,0.005501716
0.991,0.005501821
0.99125,0.005541698
0.9915,0.005569058
0.99175,0.005590624
0.992,0.005597304
0.99225,0.005558536
0.9925,0.005520558
0.99275,0.005481894
0.993,0.005453776
0.99325,0.005443665
0.9935,0.005461977
0.99375,0.005489602
0.994,0.005521458
0.99425,0.005544815
0.9945,0.005550065
0.99475,0.00553371
0.995,0.005495131
0.99525,0.005395123
0.9955,0.005366664
0.99575,0.005362234
0.996,0.005378716
0.99625,0.005452823
0.9965,0.005495439
0.99675,0.005535482
0.997,0.00556712
0.99725,0.005575999
0.9975,0.005554054
0.99775,0.005526618
0.998,0.005503635
0.99825,0.005494965
0.9985,0.005509733
0.99875,0.005534027
0.999,0.005556868
0.99925,0.005575686
0.9995,0.005564453
0.99975,0.005546142
1,0.005524372
1.00025,0.005505961
1.0005,0.005488171
1.00075,0.005469012
1.001,0.005447219
1.00125,0.005413936
1.0015,0.005420498
1.00175,0.005451416
1.002,0.005498566
1.00225,0.005584958
1.0025,0.005593467
1.00275,0.005573137
1.003,0.005531237
1.00325,0.005449104
1.0035,0.005440955
1.00375,0.005461939
1.004,0.005501868
1.00425,0.005571446
1.0045,0.005573563
1.00475,0.005552211
1.005,0.005516635
1.00525,0.005445347
1.0055,0.00542625
1.00575,0.005427955
1.006,0.005454065
1.00625,0.00549868
1.0065,0.005551969
1.00675,0.005617316
1.007,0.005606855
1.00725,0.005562236
1.0075,0.005495728
1.00775,0.00542652
1.008,0.005382189
1.00825,0.005407233
1.0085,0.00546516
1.00875,0.005524888
1.009,0.005570688
1.00925,0.005574326
1.0095,0.005539585
1.00975,0.005491199
1.01,0.005444528
1.01025,0.005405797
1.0105,0.005425169
1.01075,0.005464923
1.011,0.005509344
